Project_uvm_basic_alu/d.vcd
$date
	Wed Dec  4 12:44:18 2024
$end

$version
	Synopsys VCS version U-2023.03-SP2_Full64
$end

$timescale
	1ns
$end

$comment Csum: 1 15f547dc777f3603 $end


$scope module $unit $end
$upscope $end


$scope module top $end
$var reg 1 ! clock $end

$scope begin unnamed$$_vcs_4 $end
$upscope $end


$scope begin unnamed$$_vcs_0 $end
$upscope $end


$scope begin unnamed$$_vcs_1 $end
$upscope $end


$scope begin unnamed$$_vcs_2 $end
$upscope $end


$scope begin unnamed$$_vcs_3 $end
$upscope $end


$scope module intf $end
$var reg 1 " clock $end
$var reg 1 # reset $end
$var reg 8 $ a [7:0] $end
$var reg 8 % b [7:0] $end
$var reg 4 & op_code [3:0] $end
$var reg 8 ' result [7:0] $end
$var reg 1 ( carry_out $end
$upscope $end


$scope module dut $end
$var wire 1 ) clock $end
$var wire 1 * reset $end
$var wire 8 + A [7:0] $end
$var wire 8 , B [7:0] $end
$var wire 4 - ALU_Sel [3:0] $end
$var reg 8 . ALU_Out [7:0] $end
$var reg 1 / CarryOut $end
$var reg 8 0 ALU_Result [7:0] $end
$var wire 9 1 tmp [8:0] $end
$upscope $end

$upscope $end


$scope module uvm_pkg $end
$var time 64 2 setting_offset $end
$var reg 32 3 uvm_global_random_seed [31:0] $end
$var reg 32 4 UVM_UNBOUNDED_CONNECTIONS [31:0] $end
$var reg 1 5 uvm_start_uvm_declarations $end
$var reg 32 6 setting_verbosity [31:0] $end
$var reg 1 7 is_verdi_set_verbosity_called $end
$upscope $end

$enddefinitions $end

#0
$dumpvars
07
15
bxxxxxxxxxxxxxxxxxxxxxxxxxxxxxxxxxxxxxxxxxxxxxxxxxxxxxxxxxxxxxxxx 2
b11111111111111111111111111111111 4
b00000000000000000000000000000000 6
b01000010000001111100110001000111 3
0!
bxxxxxxxx '
bxxxx &
bxxxxxxxx %
bxxxxxxxx $
0/
bxxxxxxxx .
bxxxxxxxx 0
bxxxxxxxxx 1
bxxxxxxxx +
bxxxxxxxx ,
bxxxx -
0)
x*
0"
0(
x#
$end
#5
1!
1"
1)
1#
1*
b00010100 $
b00010100 +
b00001000 %
b00001000 ,
b000011100 1
b0011 &
b0011 -
b00000010 0
b00000000 .
b00000000 '
#7
0!
0"
0)
#9
1!
1"
1)
#11
0!
0"
0)
#13
1!
1"
1)
#15
0!
0"
0)
#17
1!
1"
1)
0#
0*
b00010000 $
b00010000 +
b000011000 1
b00000011 %
b00000011 ,
b000010011 1
b0010 &
b0010 -
b00110000 0
#19
0!
0"
0)
#21
1!
1"
1)
b00110000 .
b00110000 '
#23
0!
0"
0)
#25
1!
1"
1)
#27
0!
0"
0)
#29
1!
1"
1)
b00000101 %
b00000101 ,
b000010101 1
b0000 &
b0000 -
b00010101 0
#31
0!
0"
0)
#33
1!
1"
1)
b00010101 .
b00010101 '
#35
0!
0"
0)
#37
1!
1"
1)
#39
0!
0"
0)
#41
1!
1"
1)
b00001101 $
b00001101 +
b000010010 1
b00000011 %
b00000011 ,
b000010000 1
b0011 &
b0011 -
b00000100 0
#43
0!
0"
0)
#45
1!
1"
1)
b00000100 .
b00000100 '
#47
0!
0"
0)
#49
1!
1"
1)
#51
0!
0"
0)
#53
1!
1"
1)
b00001111 $
b00001111 +
b000010010 1
b00001000 %
b00001000 ,
b000010111 1
b0001 &
b0001 -
b00000111 0
#55
0!
0"
0)
#57
1!
1"
1)
b00000111 .
b00000111 '
#59
0!
0"
0)
#61
1!
1"
1)
#63
0!
0"
0)
#65
1!
1"
1)
b00010010 $
b00010010 +
b000011010 1
b00001001 %
b00001001 ,
b000011011 1
b0000 &
b0000 -
b00011011 0
#67
0!
0"
0)
#69
1!
1"
1)
b00011011 .
b00011011 '
#71
0!
0"
0)
#73
1!
1"
1)
#75
0!
0"
0)
#77
1!
1"
1)
b00000011 %
b00000011 ,
b000010101 1
b00010101 0
#79
0!
0"
0)
#81
1!
1"
1)
b00010101 .
b00010101 '
#83
0!
0"
0)
#85
1!
1"
1)
#87
0!
0"
0)
#89
1!
1"
1)
b00001011 $
b00001011 +
b000001110 1
b00000101 %
b00000101 ,
b000010000 1
b0010 &
b0010 -
b00110111 0
#91
0!
0"
0)
#93
1!
1"
1)
b00110111 .
b00110111 '
#95
0!
0"
0)
#97
1!
1"
1)
#99
0!
0"
0)
#101
1!
1"
1)
b00010000 $
b00010000 +
b000010101 1
b00000110 %
b00000110 ,
b000010110 1
b0001 &
b0001 -
b00001010 0
#103
0!
0"
0)
#105
1!
1"
1)
b00001010 .
b00001010 '
#107
0!
0"
0)
#109
1!
1"
1)
#111
0!
0"
0)
#113
1!
1"
1)
b00001111 $
b00001111 +
b000010101 1
b00000100 %
b00000100 ,
b000010011 1
b0000 &
b0000 -
b00010011 0
#115
0!
0"
0)
#117
1!
1"
1)
b00010011 .
b00010011 '
#119
0!
0"
0)
#121
1!
1"
1)
#123
0!
0"
0)
#125
1!
1"
1)
b00010000 $
b00010000 +
b000010100 1
b00001000 %
b00001000 ,
b000011000 1
b00011000 0
#127
0!
0"
0)
#129
1!
1"
1)
b00011000 .
b00011000 '
#131
0!
0"
0)
#133
1!
1"
1)
#135
0!
0"
0)
#137
1!
1"
1)
b00001100 $
b00001100 +
b000010100 1
b00000100 %
b00000100 ,
b000010000 1
b0010 &
b0010 -
b00110000 0
#139
0!
0"
0)
#141
1!
1"
1)
b00110000 .
b00110000 '
#143
0!
0"
0)
#145
1!
1"
1)
#147
0!
0"
0)
#149
1!
1"
1)
b00001011 $
b00001011 +
b000001111 1
b00000110 %
b00000110 ,
b000010001 1
b01000010 0
#151
0!
0"
0)
#153
1!
1"
1)
b01000010 .
b01000010 '
#155
0!
0"
0)
#157
1!
1"
1)
#159
0!
0"
0)
#161
1!
1"
1)
b00001111 $
b00001111 +
b000010101 1
b00001000 %
b00001000 ,
b000010111 1
b0000 &
b0000 -
b00010111 0
#163
0!
0"
0)
#165
1!
1"
1)
b00010111 .
b00010111 '
#167
0!
0"
0)
#169
1!
1"
1)
#171
0!
0"
0)
#173
1!
1"
1)
b00001110 $
b00001110 +
b000010110 1
b00000101 %
b00000101 ,
b000010011 1
b0001 &
b0001 -
b00001001 0
#175
0!
0"
0)
#177
1!
1"
1)
b00001001 .
b00001001 '
#179
0!
0"
0)
#181
1!
1"
1)
#183
0!
0"
0)
#185
1!
1"
1)
b00010001 $
b00010001 +
b000010110 1
b00001000 %
b00001000 ,
b000011001 1
b0011 &
b0011 -
b00000010 0
#187
0!
0"
0)
#189
1!
1"
1)
b00000010 .
b00000010 '
#191
0!
0"
0)
#193
1!
1"
1)
#195
0!
0"
0)
#197
1!
1"
1)
b00001110 $
b00001110 +
b000010110 1
b00000101 %
b00000101 ,
b000010011 1
b0010 &
b0010 -
b01000110 0
#199
0!
0"
0)
#201
1!
1"
1)
b01000110 .
b01000110 '
#203
0!
0"
0)
#205
1!
1"
1)
#207
0!
0"
0)
#209
1!
1"
1)
b00001101 $
b00001101 +
b000010010 1
b00000111 %
b00000111 ,
b000010100 1
b0011 &
b0011 -
b00000001 0
#211
0!
0"
0)
#213
1!
1"
1)
b00000001 .
b00000001 '
#215
0!
0"
0)
#217
1!
1"
1)
#219
0!
0"
0)
#221
1!
1"
1)
b00001011 $
b00001011 +
b000010010 1
b00000011 %
b00000011 ,
b000001110 1
b0001 &
b0001 -
b00001000 0
#223
0!
0"
0)
#225
1!
1"
1)
b00001000 .
b00001000 '
#227
0!
0"
0)
#229
1!
1"
1)
#231
0!
0"
0)
#233
1!
1"
1)
b00010000 $
b00010000 +
b000010011 1
b00000111 %
b00000111 ,
b000010111 1
b0000 &
b0000 -
b00010111 0
#235
0!
0"
0)
#237
1!
1"
1)
b00010111 .
b00010111 '
#239
0!
0"
0)
#241
1!
1"
1)
#243
0!
0"
0)
#245
1!
1"
1)
b00001011 $
b00001011 +
b000010010 1
b00000010 %
b00000010 ,
b000001101 1
b0001 &
b0001 -
b00001001 0
#247
0!
0"
0)
#249
1!
1"
1)
b00001001 .
b00001001 '
#251
0!
0"
0)
#253
1!
1"
1)
#255
0!
0"
0)
#257
1!
1"
1)
b00001010 $
b00001010 +
b000001100 1
b00000101 %
b00000101 ,
b000001111 1
b0010 &
b0010 -
b00110010 0
#259
0!
0"
0)
#261
1!
1"
1)
b00110010 .
b00110010 '
#263
0!
0"
0)
#265
1!
1"
1)
#267
0!
0"
0)
#269
1!
1"
1)
b00001101 $
b00001101 +
b000010010 1
b0000 &
b0000 -
b00010010 0
#271
0!
0"
0)
#273
1!
1"
1)
b00010010 .
b00010010 '
#275
0!
0"
0)
#277
1!
1"
1)
#279
0!
0"
0)
#281
1!
1"
1)
b00010001 $
b00010001 +
b000010110 1
b00001010 %
b00001010 ,
b000011011 1
b0010 &
b0010 -
b10101010 0
#283
0!
0"
0)
#285
1!
1"
1)
b10101010 .
b10101010 '
#287
0!
0"
0)
#289
1!
1"
1)
#291
0!
0"
0)
#293
1!
1"
1)
b00001111 $
b00001111 +
b000011001 1
b00001001 %
b00001001 ,
b000011000 1
b10000111 0
#295
0!
0"
0)
#297
1!
1"
1)
b10000111 .
b10000111 '
#299
0!
0"
0)
#301
1!
1"
1)
#303
0!
0"
0)
#305
1!
1"
1)
b00010001 $
b00010001 +
b000011010 1
b00000010 %
b00000010 ,
b000010011 1
b00100010 0
#307
0!
0"
0)
#309
1!
1"
1)
b00100010 .
b00100010 '
#311
0!
0"
0)
#313
1!
1"
1)
#315
0!
0"
0)
#317
1!
1"
1)
b00010010 $
b00010010 +
b000010100 1
b00000111 %
b00000111 ,
b000011001 1
b0000 &
b0000 -
b00011001 0
#319
0!
0"
0)
#321
1!
1"
1)
b00011001 .
b00011001 '
#323
0!
0"
0)
#325
1!
1"
1)
#327
0!
0"
0)
#329
1!
1"
1)
b00010011 $
b00010011 +
b000011010 1
b00001001 %
b00001001 ,
b000011100 1
b0001 &
b0001 -
b00001010 0
#331
0!
0"
0)
#333
1!
1"
1)
b00001010 .
b00001010 '
#335
0!
0"
0)
#337
1!
1"
1)
#339
0!
0"
0)
#341
1!
1"
1)
b00010000 $
b00010000 +
b000011001 1
b00000001 %
b00000001 ,
b000010001 1
b0000 &
b0000 -
b00010001 0
#343
0!
0"
0)
#345
1!
1"
1)
b00010001 .
b00010001 '
#347
0!
0"
0)
#349
1!
1"
1)
#351
0!
0"
0)
#353
1!
1"
1)
b00010011 $
b00010011 +
b000010100 1
b00000110 %
b00000110 ,
b000011001 1
b00011001 0
#355
0!
0"
0)
#357
1!
1"
1)
b00011001 .
b00011001 '
#359
0!
0"
0)
#361
1!
1"
1)
#363
0!
0"
0)
#365
1!
1"
1)
b00001110 $
b00001110 +
b000010100 1
b00001010 %
b00001010 ,
b000011000 1
b00011000 0
#367
0!
0"
0)
#369
1!
1"
1)
b00011000 .
b00011000 '
#371
0!
0"
0)
#373
1!
1"
1)
#375
0!
0"
0)
#377
1!
1"
1)
b00001010 $
b00001010 +
b000010100 1
b00001000 %
b00001000 ,
b000010010 1
b0001 &
b0001 -
b00000010 0
#379
0!
0"
0)
#381
1!
1"
1)
b00000010 .
b00000010 '
#383
0!
0"
0)
#385
1!
1"
1)
#387
0!
0"
0)
#389
1!
1"
1)
b00010010 $
b00010010 +
b000011010 1
b00000001 %
b00000001 ,
b000010011 1
b0000 &
b0000 -
b00010011 0
#391
0!
0"
0)
#393
1!
1"
1)
b00010011 .
b00010011 '
#395
0!
0"
0)
#397
1!
1"
1)
#399
0!
0"
0)
#401
1!
1"
1)
b00010100 $
b00010100 +
b000010101 1
b00000100 %
b00000100 ,
b000011000 1
b00011000 0
#403
0!
0"
0)
#405
1!
1"
1)
b00011000 .
b00011000 '
#407
0!
0"
0)
#409
1!
1"
1)
#411
0!
0"
0)
#413
1!
1"
1)
b00001111 $
b00001111 +
b000010011 1
b00001001 %
b00001001 ,
b000011000 1
b0001 &
b0001 -
b00000110 0
#415
0!
0"
0)
#417
1!
1"
1)
b00000110 .
b00000110 '
#419
0!
0"
0)
#421
1!
1"
1)
#423
0!
0"
0)
#425
1!
1"
1)
b00001010 $
b00001010 +
b000010011 1
b00000010 %
b00000010 ,
b000001100 1
b0000 &
b0000 -
b00001100 0
#427
0!
0"
0)
#429
1!
1"
1)
b00001100 .
b00001100 '
#431
0!
0"
0)
#433
1!
1"
1)
#435
0!
0"
0)
#437
1!
1"
1)
b00001111 $
b00001111 +
b000010001 1
b00001000 %
b00001000 ,
b000010111 1
b0011 &
b0011 -
b00000001 0
#439
0!
0"
0)
#441
1!
1"
1)
b00000001 .
b00000001 '
#443
0!
0"
0)
#445
1!
1"
1)
#447
0!
0"
0)
#449
1!
1"
1)
b00001011 $
b00001011 +
b000010011 1
b00001010 %
b00001010 ,
b000010101 1
#451
0!
0"
0)
#453
1!
1"
1)
#455
0!
0"
0)
#457
1!
1"
1)
#459
0!
0"
0)
#461
1!
1"
1)
b00010001 $
b00010001 +
b000011011 1
b00000110 %
b00000110 ,
b000010111 1
b0000 &
b0000 -
b00010111 0
#463
0!
0"
0)
#465
1!
1"
1)
b00010111 .
b00010111 '
#467
0!
0"
0)
#469
1!
1"
1)
#471
0!
0"
0)
#473
1!
1"
1)
b00001110 $
b00001110 +
b000010100 1
b00000001 %
b00000001 ,
b000001111 1
b0001 &
b0001 -
b00001101 0
#475
0!
0"
0)
#477
1!
1"
1)
b00001101 .
b00001101 '
#479
0!
0"
0)
#481
1!
1"
1)
#483
0!
0"
0)
#485
1!
1"
1)
b00010000 $
b00010000 +
b000010001 1
b00000101 %
b00000101 ,
b000010101 1
b0010 &
b0010 -
b01010000 0
#487
0!
0"
0)
#489
1!
1"
1)
b01010000 .
b01010000 '
#491
0!
0"
0)
#493
1!
1"
1)
#495
0!
0"
0)
#497
1!
1"
1)
b00010001 $
b00010001 +
b000010110 1
b00001010 %
b00001010 ,
b000011011 1
b0011 &
b0011 -
b00000001 0
#499
0!
0"
0)
#501
1!
1"
1)
b00000001 .
b00000001 '
#503
0!
0"
0)
#505
1!
1"
1)
#507
0!
0"
0)
#509
1!
1"
1)
b00001100 $
b00001100 +
b000010110 1
b00000101 %
b00000101 ,
b000010001 1
b0010 &
b0010 -
b00111100 0
#511
0!
0"
0)
#513
1!
1"
1)
b00111100 .
b00111100 '
#515
0!
0"
0)
#517
1!
1"
1)
#519
0!
0"
0)
#521
1!
1"
1)
b00010000 $
b00010000 +
b000010101 1
b0001 &
b0001 -
b00001011 0
#523
0!
0"
0)
#525
1!
1"
1)
b00001011 .
b00001011 '
#527
0!
0"
0)
#529
1!
1"
1)
#531
0!
0"
0)
#533
1!
1"
1)
b00010010 $
b00010010 +
b000010111 1
b00000100 %
b00000100 ,
b000010110 1
b0010 &
b0010 -
b01001000 0
#535
0!
0"
0)
#537
1!
1"
1)
b01001000 .
b01001000 '
#539
0!
0"
0)
#541
1!
1"
1)
#543
0!
0"
0)
#545
1!
1"
1)
b00001101 $
b00001101 +
b000010001 1
b00000011 %
b00000011 ,
b000010000 1
b00100111 0
#547
0!
0"
0)
#549
1!
1"
1)
b00100111 .
b00100111 '
#551
0!
0"
0)
#553
1!
1"
1)
#555
0!
0"
0)
#557
1!
1"
1)
b00010001 $
b00010001 +
b000010100 1
b00000110 %
b00000110 ,
b000010111 1
b0011 &
b0011 -
b00000010 0
#559
0!
0"
0)
#561
1!
1"
1)
b00000010 .
b00000010 '
#563
0!
0"
0)
#565
1!
1"
1)
#567
0!
0"
0)
#569
1!
1"
1)
b00010010 $
b00010010 +
b000011000 1
b00000010 %
b00000010 ,
b000010100 1
b0000 &
b0000 -
b00010100 0
#571
0!
0"
0)
#573
1!
1"
1)
b00010100 .
b00010100 '
#575
0!
0"
0)
#577
1!
1"
1)
#579
0!
0"
0)
#581
1!
1"
1)
b00001011 $
b00001011 +
b000001101 1
b00000111 %
b00000111 ,
b000010010 1
b0001 &
b0001 -
b00000100 0
#583
0!
0"
0)
#585
1!
1"
1)
b00000100 .
b00000100 '
#587
0!
0"
0)
#589
1!
1"
1)
#591
0!
0"
0)
#593
1!
1"
1)
b00001010 $
b00001010 +
b000010001 1
b0010 &
b0010 -
b01000110 0
#595
0!
0"
0)
#597
1!
1"
1)
b01000110 .
b01000110 '
#599
0!
0"
0)
#601
1!
1"
1)
#603
0!
0"
0)
#605
1!
1"
1)
b00001100 $
b00001100 +
b000010011 1
b00000101 %
b00000101 ,
b000010001 1
b0011 &
b0011 -
b00000010 0
#607
0!
0"
0)
#609
1!
1"
1)
b00000010 .
b00000010 '
#611
0!
0"
0)
#613
1!
1"
1)
#615
0!
0"
0)
#617
1!
1"
1)
b00010010 $
b00010010 +
b000010111 1
b00001010 %
b00001010 ,
b000011100 1
b0010 &
b0010 -
b10110100 0
#619
0!
0"
0)
#621
1!
1"
1)
b10110100 .
b10110100 '
#623
0!
0"
0)
#625
1!
1"
1)
#627
0!
0"
0)
#629
1!
1"
1)
b00010100 $
b00010100 +
b000011110 1
b00000101 %
b00000101 ,
b000011001 1
b0001 &
b0001 -
b00001111 0
#631
0!
0"
0)
#633
1!
1"
1)
b00001111 .
b00001111 '
#635
0!
0"
0)
#637
1!
1"
1)
#639
0!
0"
0)
#641
1!
1"
1)
b00001010 $
b00001010 +
b000001111 1
b00000011 %
b00000011 ,
b000001101 1
b0010 &
b0010 -
b00011110 0
#643
0!
0"
0)
#645
1!
1"
1)
b00011110 .
b00011110 '
#647
0!
0"
0)
#649
1!
1"
1)
#651
0!
0"
0)
#653
1!
1"
1)
b00010010 $
b00010010 +
b000010101 1
b00000010 %
b00000010 ,
b000010100 1
b0001 &
b0001 -
b00010000 0
#655
0!
0"
0)
#657
1!
1"
1)
b00010000 .
b00010000 '
#659
0!
0"
0)
#661
1!
1"
1)
#663
0!
0"
0)
#665
1!
1"
1)
b00010100 $
b00010100 +
b000010110 1
b00001001 %
b00001001 ,
b000011101 1
b0000 &
b0000 -
b00011101 0
#667
0!
0"
0)
#669
1!
1"
1)
b00011101 .
b00011101 '
#671
0!
0"
0)
#673
1!
1"
1)
#675
0!
0"
0)
#677
1!
1"
1)
b00000101 %
b00000101 ,
b000011001 1
b0001 &
b0001 -
b00001111 0
#679
0!
0"
0)
#681
1!
1"
1)
b00001111 .
b00001111 '
#683
0!
0"
0)
#685
1!
1"
1)
#687
0!
0"
0)
#689
1!
1"
1)
b00010001 $
b00010001 +
b000010110 1
b00000110 %
b00000110 ,
b000010111 1
b00001011 0
#691
0!
0"
0)
#693
1!
1"
1)
b00001011 .
b00001011 '
#695
0!
0"
0)
#697
1!
1"
1)
#699
0!
0"
0)
#701
1!
1"
1)
b00001010 $
b00001010 +
b000010000 1
b00001010 %
b00001010 ,
b000010100 1
b00000000 0
#703
0!
0"
0)
#705
1!
1"
1)
b00000000 .
b00000000 '
#707
0!
0"
0)
#709
1!
1"
1)
#711
0!
0"
0)
#713
1!
1"
1)
b00001110 $
b00001110 +
b000011000 1
b00000011 %
b00000011 ,
b000010001 1
b0010 &
b0010 -
b00101010 0
#715
0!
0"
0)
#717
1!
1"
1)
b00101010 .
b00101010 '
#719
0!
0"
0)
#721
1!
1"
1)
#723
0!
0"
0)
#725
1!
1"
1)
b00001100 $
b00001100 +
b000001111 1
b00000001 %
b00000001 ,
b000001101 1
b00001100 0
#727
0!
0"
0)
#729
1!
1"
1)
b00001100 .
b00001100 '
#731
0!
0"
0)
#733
1!
1"
1)
#735
0!
0"
0)
#737
1!
1"
1)
b00001101 $
b00001101 +
b000001110 1
b00001001 %
b00001001 ,
b000010110 1
b0000 &
b0000 -
b00010110 0
#739
0!
0"
0)
#741
1!
1"
1)
b00010110 .
b00010110 '
#743
0!
0"
0)
#745
1!
1"
1)
#747
0!
0"
0)
#749
1!
1"
1)
b00001110 $
b00001110 +
b000010111 1
b00001010 %
b00001010 ,
b000011000 1
b0010 &
b0010 -
b10001100 0
#751
0!
0"
0)
#753
1!
1"
1)
b10001100 .
b10001100 '
#755
0!
0"
0)
#757
1!
1"
1)
#759
0!
0"
0)
#761
1!
1"
1)
b00001011 $
b00001011 +
b000010101 1
b00000011 %
b00000011 ,
b000001110 1
b0001 &
b0001 -
b00001000 0
#763
0!
0"
0)
#765
1!
1"
1)
b00001000 .
b00001000 '
#767
0!
0"
0)
#769
1!
1"
1)
#771
0!
0"
0)
#773
1!
1"
1)
b00010010 $
b00010010 +
b000010101 1
b00001001 %
b00001001 ,
b000011011 1
b0010 &
b0010 -
b10100010 0
#775
0!
0"
0)
#777
1!
1"
1)
b10100010 .
b10100010 '
#779
0!
0"
0)
#781
1!
1"
1)
#783
0!
0"
0)
#785
1!
1"
1)
b00010000 $
b00010000 +
b000011001 1
b00000110 %
b00000110 ,
b000010110 1
b0001 &
b0001 -
b00001010 0
#787
0!
0"
0)
#789
1!
1"
1)
b00001010 .
b00001010 '
#791
0!
0"
0)
#793
1!
1"
1)
#795
0!
0"
0)
#797
1!
1"
1)
b00001011 $
b00001011 +
b000010001 1
b00000101 %
b00000101 ,
b000010000 1
b00000110 0
#799
0!
0"
0)
#801
1!
1"
1)
b00000110 .
b00000110 '
#803
0!
0"
0)
#805
1!
1"
1)
#807
0!
0"
0)
#809
1!
1"
1)
b00001010 $
b00001010 +
b000001111 1
b0010 &
b0010 -
b00110010 0
#811
0!
0"
0)
#813
1!
1"
1)
b00110010 .
b00110010 '
#815
0!
0"
0)
#817
1!
1"
1)
#819
0!
0"
0)
#821
1!
1"
1)
b00010011 $
b00010011 +
b000011000 1
b00001001 %
b00001001 ,
b000011100 1
b0001 &
b0001 -
b00001010 0
#823
0!
0"
0)
#825
1!
1"
1)
b00001010 .
b00001010 '
#827
0!
0"
0)
#829
1!
1"
1)
#831
0!
0"
0)
#833
1!
1"
1)
b00001100 $
b00001100 +
b000010101 1
b00000101 %
b00000101 ,
b000010001 1
b0011 &
b0011 -
b00000010 0
#835
0!
0"
0)
#837
1!
1"
1)
b00000010 .
b00000010 '
#839
0!
0"
0)
#841
1!
1"
1)
#843
0!
0"
0)
#845
1!
1"
1)
b00001101 $
b00001101 +
b000010010 1
b00000010 %
b00000010 ,
b000001111 1
b0001 &
b0001 -
b00001011 0
#847
0!
0"
0)
#849
1!
1"
1)
b00001011 .
b00001011 '
#851
0!
0"
0)
#853
1!
1"
1)
#855
0!
0"
0)
#857
1!
1"
1)
b00010100 $
b00010100 +
b000010110 1
b00000100 %
b00000100 ,
b000011000 1
b0010 &
b0010 -
b01010000 0
#859
0!
0"
0)
#861
1!
1"
1)
b01010000 .
b01010000 '
#863
0!
0"
0)
#865
1!
1"
1)
#867
0!
0"
0)
#869
1!
1"
1)
b00010001 $
b00010001 +
b000010101 1
b00000101 %
b00000101 ,
b000010110 1
b0000 &
b0000 -
b00010110 0
#871
0!
0"
0)
#873
1!
1"
1)
b00010110 .
b00010110 '
#875
0!
0"
0)
#877
1!
1"
1)
#879
0!
0"
0)
#881
1!
1"
1)
b00001011 $
b00001011 +
b000010000 1
b00001010 %
b00001010 ,
b000010101 1
b0011 &
b0011 -
b00000001 0
#883
0!
0"
0)
#885
1!
1"
1)
b00000001 .
b00000001 '
#887
0!
0"
0)
#889
1!
1"
1)
#891
0!
0"
0)
#893
1!
1"
1)
b00010100 $
b00010100 +
b000011110 1
b00000101 %
b00000101 ,
b000011001 1
b0010 &
b0010 -
b01100100 0
#895
0!
0"
0)
#897
1!
1"
1)
b01100100 .
b01100100 '
#899
0!
0"
0)
#901
1!
1"
1)
#903
0!
0"
0)
#905
1!
1"
1)
b00010010 $
b00010010 +
b000010111 1
b00000100 %
b00000100 ,
b000010110 1
b0000 &
b0000 -
b00010110 0
#907
0!
0"
0)
#909
1!
1"
1)
b00010110 .
b00010110 '
#911
0!
0"
0)
#913
1!
1"
1)
#915
0!
0"
0)
#917
1!
1"
1)
b00001010 $
b00001010 +
b000001110 1
b00000010 %
b00000010 ,
b000001100 1
b00001100 0
#919
0!
0"
0)
#921
1!
1"
1)
b00001100 .
b00001100 '
#923
0!
0"
0)
#925
1!
1"
1)
#927
0!
0"
0)
#929
1!
1"
1)
b00001100 $
b00001100 +
b000001110 1
b00000011 %
b00000011 ,
b000001111 1
b0010 &
b0010 -
b00100100 0
#931
0!
0"
0)
#933
1!
1"
1)
b00100100 .
b00100100 '
#935
0!
0"
0)
#937
1!
1"
1)
#939
0!
0"
0)
#941
1!
1"
1)
b00001110 $
b00001110 +
b000010001 1
b00001010 %
b00001010 ,
b000011000 1
b0011 &
b0011 -
b00000001 0
#943
0!
0"
0)
#945
1!
1"
1)
b00000001 .
b00000001 '
#947
0!
0"
0)
#949
1!
1"
1)
#951
0!
0"
0)
#953
1!
1"
1)
b00010011 $
b00010011 +
b000011101 1
b00000011 %
b00000011 ,
b000010110 1
b00000110 0
#955
0!
0"
0)
#957
1!
1"
1)
b00000110 .
b00000110 '
#959
0!
0"
0)
#961
1!
1"
1)
#963
0!
0"
0)
#965
1!
1"
1)
b00001111 $
b00001111 +
b000010010 1
b00000111 %
b00000111 ,
b000010110 1
b0000 &
b0000 -
b00010110 0
#967
0!
0"
0)
#969
1!
1"
1)
b00010110 .
b00010110 '
#971
0!
0"
0)
#973
1!
1"
1)
#975
0!
0"
0)
#977
1!
1"
1)
b00010001 $
b00010001 +
b000011000 1
b00000100 %
b00000100 ,
b000010101 1
b0011 &
b0011 -
b00000100 0
#979
0!
0"
0)
#981
1!
1"
1)
b00000100 .
b00000100 '
#983
0!
0"
0)
#985
1!
1"
1)
#987
0!
0"
0)
#989
1!
1"
1)
b00010100 $
b00010100 +
b000011000 1
b00000101 %
b00000101 ,
b000011001 1
b0000 &
b0000 -
b00011001 0
#991
0!
0"
0)
#993
1!
1"
1)
b00011001 .
b00011001 '
#995
0!
0"
0)
#997
1!
1"
1)
#999
0!
0"
0)
#1001
1!
1"
1)
b00001110 $
b00001110 +
b000010011 1
b00000011 %
b00000011 ,
b000010001 1
b0011 &
b0011 -
b00000100 0
#1003
0!
0"
0)
#1005
1!
1"
1)
b00000100 .
b00000100 '
#1007
0!
0"
0)
#1009
1!
1"
1)
#1011
0!
0"
0)
#1013
1!
1"
1)
b00001100 $
b00001100 +
b000001111 1
b00000001 %
b00000001 ,
b000001101 1
b0001 &
b0001 -
b00001011 0
#1015
0!
0"
0)
#1017
1!
1"
1)
b00001011 .
b00001011 '
#1019
0!
0"
0)
#1021
1!
1"
1)
#1023
0!
0"
0)
#1025
1!
1"
1)
b00000111 %
b00000111 ,
b000010011 1
b0000 &
b0000 -
b00010011 0
#1027
0!
0"
0)
#1029
1!
1"
1)
b00010011 .
b00010011 '
#1031
0!
0"
0)
#1033
1!
1"
1)
#1035
0!
0"
0)
#1037
1!
1"
1)
b00010011 $
b00010011 +
b000011010 1
b00000010 %
b00000010 ,
b000010101 1
b0011 &
b0011 -
b00001001 0
#1039
0!
0"
0)
#1041
1!
1"
1)
b00001001 .
b00001001 '
#1043
0!
0"
0)
#1045
1!
1"
1)
#1047
0!
0"
0)
#1049
1!
1"
1)
b00001111 $
b00001111 +
b000010001 1
b00000111 0
#1051
0!
0"
0)
#1053
1!
1"
1)
b00000111 .
b00000111 '
#1055
0!
0"
0)
#1057
1!
1"
1)
#1059
0!
0"
0)
#1061
1!
1"
1)
b00010000 $
b00010000 +
b000010010 1
b00001010 %
b00001010 ,
b000011010 1
b0001 &
b0001 -
b00000110 0
#1063
0!
0"
0)
#1065
1!
1"
1)
b00000110 .
b00000110 '
#1067
0!
0"
0)
#1069
1!
1"
1)
#1071
0!
0"
0)
#1073
1!
1"
1)
b00001011 $
b00001011 +
b000010101 1
b00000001 %
b00000001 ,
b000001100 1
b00001010 0
#1075
0!
0"
0)
#1077
1!
1"
1)
b00001010 .
b00001010 '
#1079
0!
0"
0)
#1081
1!
1"
1)
#1083
0!
0"
0)
#1085
1!
1"
1)
b00001101 $
b00001101 +
b000001110 1
b00001000 %
b00001000 ,
b000010101 1
b0000 &
b0000 -
b00010101 0
#1087
0!
0"
0)
#1089
1!
1"
1)
b00010101 .
b00010101 '
#1091
0!
0"
0)
#1093
1!
1"
1)
#1095
0!
0"
0)
#1097
1!
1"
1)
b00010011 $
b00010011 +
b000011011 1
b00001010 %
b00001010 ,
b000011101 1
b0011 &
b0011 -
b00000001 0
#1099
0!
0"
0)
#1101
1!
1"
1)
b00000001 .
b00000001 '
#1103
0!
0"
0)
#1105
1!
1"
1)
#1107
0!
0"
0)
#1109
1!
1"
1)
b00010100 $
b00010100 +
b000011110 1
b00000100 %
b00000100 ,
b000011000 1
b0000 &
b0000 -
b00011000 0
#1111
0!
0"
0)
#1113
1!
1"
1)
b00011000 .
b00011000 '
#1115
0!
0"
0)
#1117
1!
1"
1)
#1119
0!
0"
0)
#1121
1!
1"
1)
b00010000 $
b00010000 +
b000010100 1
b00000011 %
b00000011 ,
b000010011 1
b0010 &
b0010 -
b00110000 0
#1123
0!
0"
0)
#1125
1!
1"
1)
b00110000 .
b00110000 '
#1127
0!
0"
0)
#1129
1!
1"
1)
#1131
0!
0"
0)
#1133
1!
1"
1)
b00010100 $
b00010100 +
b000010111 1
b00001001 %
b00001001 ,
b000011101 1
b10110100 0
#1135
0!
0"
0)
#1137
1!
1"
1)
b10110100 .
b10110100 '
#1139
0!
0"
0)
#1141
1!
1"
1)
#1143
0!
0"
0)
#1145
1!
1"
1)
b00010011 $
b00010011 +
b000011100 1
b00001010 %
b00001010 ,
b000011101 1
b0011 &
b0011 -
b00000001 0
#1147
0!
0"
0)
#1149
1!
1"
1)
b00000001 .
b00000001 '
#1151
0!
0"
0)
#1153
1!
1"
1)
#1155
0!
0"
0)
#1157
1!
1"
1)
b00010000 $
b00010000 +
b000011010 1
b00000010 %
b00000010 ,
b000010010 1
b0000 &
b0000 -
b00010010 0
#1159
0!
0"
0)
