Project_uvm_alu/d.vcd
$date
Fri Jan 31 10:40:37 2025
$end
$version
Riviera-PRO Version 2023.04.112.8911
$end
$timescale
1 ns
$end

$scope module top $end
$var reg 1 ! clock $end

$scope module intf $end
$var reg 1 " reset $end
$var reg 8 # A [7:0] $end
$var reg 8 $ B [7:0] $end
$var reg 4 % op [3:0] $end
$var reg 8 & result [7:0] $end
$var reg 1 ' carryout $end
$upscope $end


$scope module dut $end
$var wire 1 ( clock $end
$var wire 1 ) reset $end
$var wire 8 * A [7:0] $end
$var wire 8 + B [7:0] $end
$var wire 4 , ALU_Sel [3:0] $end
$var wire 9 - tmp [8:0] $end
$var reg 8 . ALU_Out [7:0] $end
$var reg 1 / CarryOut $end
$var reg 8 0 ALU_Result [7:0] $end
$upscope $end

$upscope $end


$scope module uvm_pkg $end
$var integer 32 1 UVM_UNBOUNDED_CONNECTIONS $end
$var reg 1 2 uvm_start_uvm_declarations $end
$var integer 32 3 uvm_global_random_seed $end
$var parameter 32 4 UVM_HDL_MAX_WIDTH [31:0] $end
$var parameter 32 5 UVM_STREAMBITS [31:0] $end
$var parameter 32 6 UVM_RADIX [31:0] $end
$var parameter 32 7 UVM_MACRO_NUMFLAGS [31:0] $end
$var parameter 32 8 UVM_DEFAULT [31:0] $end
$var parameter 32 9 UVM_ALL_ON [31:0] $end
$var parameter 32 : UVM_FLAGS_ON [31:0] $end
$var parameter 32 ; UVM_FLAGS_OFF [31:0] $end
$var parameter 32 < UVM_COPY [31:0] $end
$var parameter 32 = UVM_NOCOPY [31:0] $end
$var parameter 32 > UVM_COMPARE [31:0] $end
$var parameter 32 ? UVM_NOCOMPARE [31:0] $end
$var parameter 32 @ UVM_PRINT [31:0] $end
$var parameter 32 A UVM_NOPRINT [31:0] $end
$var parameter 32 B UVM_RECORD [31:0] $end
$var parameter 32 C UVM_NORECORD [31:0] $end
$var parameter 32 D UVM_PACK [31:0] $end
$var parameter 32 E UVM_NOPACK [31:0] $end
$var parameter 32 F UVM_PHYSICAL [31:0] $end
$var parameter 32 G UVM_ABSTRACT [31:0] $end
$var parameter 32 H UVM_READONLY [31:0] $end
$var parameter 32 I UVM_NODEFPRINT [31:0] $end
$var parameter 32 J UVM_MACRO_EXTRAS [31:0] $end
$var parameter 32 K UVM_FLAGS [31:0] $end
$var parameter 32 L UVM_UNPACK [31:0] $end
$var parameter 32 M UVM_CHECK_FIELDS [31:0] $end
$var parameter 32 N UVM_END_DATA_EXTRA [31:0] $end
$var parameter 32 O UVM_START_FUNCS [31:0] $end
$var parameter 32 P UVM_SET [31:0] $end
$var parameter 32 Q UVM_SETINT [31:0] $end
$var parameter 32 R UVM_SETOBJ [31:0] $end
$var parameter 32 S UVM_SETSTR [31:0] $end
$var parameter 32 T UVM_END_FUNCS [31:0] $end
$var parameter 32 U UVM_STR_CRC_POLYNOMIAL [31:0] $end
$var parameter 32 V UVM_STDOUT [31:0] $end
$var parameter 32 W UVM_LOG_UVM_RM_RECORD [31:0] $end
$var parameter 32 X UVM_LINE_WIDTH [31:0] $end
$var parameter 32 Y UVM_NUM_LINES [31:0] $end
$var parameter 32 Z UVM_SMALL_STRING [31:0] $end
$var parameter 32 [ UVM_LARGE_STRING [31:0] $end

$scope function uvm_hdl_check_path $end
$var integer 32 \ uvm_hdl_check_path $end
$upscope $end


$scope function uvm_hdl_deposit $end
$var reg 1024 ] value [1023:0] $end
$var integer 32 ^ uvm_hdl_deposit $end
$upscope $end


$scope function uvm_hdl_force $end
$var reg 1024 _ value [1023:0] $end
$var integer 32 ` uvm_hdl_force $end
$upscope $end


$scope task uvm_hdl_force_time $end
$var reg 1024 a value [1023:0] $end
$var time 64 b force_time $end
$upscope $end


$scope function uvm_hdl_release_and_read $end
$var reg 1024 c value [1023:0] $end
$var integer 32 d uvm_hdl_release_and_read $end
$upscope $end


$scope function uvm_hdl_release $end
$var integer 32 e uvm_hdl_release $end
$upscope $end


$scope function uvm_hdl_read $end
$var reg 1024 f value [1023:0] $end
$var integer 32 g uvm_hdl_read $end
$upscope $end


$scope function uvm_dpi_get_next_arg_c $end
$var integer 32 h init $end
$upscope $end


$scope function uvm_dpi_get_tool_name_c $end
$upscope $end


$scope function uvm_dpi_get_tool_version_c $end
$upscope $end


$scope function uvm_dpi_get_next_arg $end
$var integer 32 i init $end
$upscope $end


$scope function uvm_dpi_get_tool_name $end
$upscope $end


$scope function uvm_dpi_get_tool_version $end
$upscope $end


$scope function uvm_dpi_regcomp $end
$upscope $end


$scope function uvm_dpi_regexec $end
$var integer 32 j uvm_dpi_regexec $end
$upscope $end


$scope function uvm_dpi_regfree $end
$upscope $end


$scope function uvm_re_match $end
$var integer 32 k uvm_re_match $end
$upscope $end


$scope function uvm_dump_re_cache $end
$upscope $end


$scope function uvm_glob_to_re $end
$upscope $end


$scope function uvm_revision_string $end
$upscope $end


$scope function uvm_radix_to_string $end
$var integer 32 l radix $end
$upscope $end


$scope function uvm_instance_scope $end
$var reg 8 m c [7:0] $end
$var integer 32 n pos $end

$scope begin 1unnblk $end
$var integer 32 o dot_pos $end
$var integer 32 p slash_cnt $end
$var integer 32 q slash_pos $end
$upscope $end

$upscope $end


$scope function uvm_oneway_hash $end
$var integer 32 r seed $end
$var integer 32 s uvm_oneway_hash $end
$var reg 1 t msb $end
$var reg 8 u current_byte [7:0] $end
$var reg 32 v crc1 [31:0] $end
$upscope $end


$scope function uvm_create_random_seed $end
$var integer 32 w uvm_create_random_seed $end
$upscope $end


$scope function uvm_object_value_str $end
$upscope $end


$scope function uvm_leaf_scope $end
$var reg 8 x scope_separator [7:0] $end
$var reg 8 y bracket_match [7:0] $end
$var integer 32 z pos $end
$var integer 32 { bmatches $end
$upscope $end


$scope function get_radix_string_global $end
$var integer 32 | radix $end
$upscope $end


$scope function uvm_bitstream_to_string $end
$var reg 4096 } value [4095:0] $end
$var integer 32 ~ size $end
$var integer 32 !! radix $end

$scope begin 24unnblk $end
$var reg 4096 "! _t [4095:0] $end
$upscope $end

$upscope $end


$scope function uvm_integral_to_string $end
$var reg 64 #! value [63:0] $end
$var integer 32 $! size $end
$var integer 32 %! radix $end

$scope begin 26unnblk $end
$var reg 64 &! _t [63:0] $end
$upscope $end

$upscope $end


$scope function uvm_vector_to_string $end
$var reg 4096 '! value [4095:0] $end
$var integer 32 (! size $end
$var integer 32 )! radix $end
$upscope $end


$scope function uvm_get_array_index_int $end
$var reg 1 *! is_wildcard $end
$var integer 32 +! uvm_get_array_index_int $end
$var integer 32 ,! i $end
$upscope $end


$scope function uvm_get_array_index_string $end
$var reg 1 -! is_wildcard $end
$var integer 32 .! i $end
$upscope $end


$scope function uvm_is_array $end
$var reg 1 /! uvm_is_array $end
$upscope $end


$scope function uvm_has_wildcard $end
$upscope $end


$scope function m_uvm_string_queue_join $end
$upscope $end


$scope task run_test $end
$upscope $end


$scope function global_stop_request $end
$upscope $end


$scope function set_global_timeout $end
$var time 64 0! timeout $end
$var reg 1 1! overridable $end
$upscope $end


$scope function set_global_stop_timeout $end
$var time 64 2! timeout $end
$upscope $end


$scope function uvm_get_report_object $end
$upscope $end


$scope function uvm_report_enabled $end
$var integer 32 3! verbosity $end
$var reg 2 4! severity $end
$var integer 32 5! uvm_report_enabled $end
$upscope $end


$scope function uvm_report $end
$var reg 2 6! severity $end
$var integer 32 7! verbosity $end
$var integer 32 8! line $end
$var reg 1 9! report_enabled_checked $end
$upscope $end


$scope function m__uvm_report_dpi $end
$var integer 32 :! severity $end
$var integer 32 ;! verbosity $end
$var integer 32 <! line $end
$upscope $end


$scope function uvm_report_info $end
$var integer 32 =! verbosity $end
$var integer 32 >! line $end
$var reg 1 ?! report_enabled_checked $end
$upscope $end


$scope function uvm_report_warning $end
$var integer 32 @! verbosity $end
$var integer 32 A! line $end
$var reg 1 B! report_enabled_checked $end
$upscope $end


$scope function uvm_report_error $end
$var integer 32 C! verbosity $end
$var integer 32 D! line $end
$var reg 1 E! report_enabled_checked $end
$upscope $end


$scope function uvm_report_fatal $end
$var integer 32 F! verbosity $end
$var integer 32 G! line $end
$var reg 1 H! report_enabled_checked $end
$upscope $end


$scope function uvm_process_report_message $end
$upscope $end


$scope function uvm_string_to_severity $end
$var reg 2 I! sev $end
$var reg 1 J! uvm_string_to_severity $end
$upscope $end


$scope function uvm_string_to_action $end
$upscope $end


$scope function set_config_int $end
$var reg 4096 K! value [4095:0] $end
$upscope $end


$scope function set_config_object $end
$var reg 1 L! clone $end
$upscope $end


$scope function set_config_string $end
$upscope $end


$scope function uvm_is_match $end
$var reg 1 M! uvm_is_match $end
$upscope $end


$scope function uvm_string_to_bits $end
$var reg 115200 N! uvm_string_to_bits [115199:0] $end
$upscope $end


$scope function uvm_bits_to_string $end
$var reg 115200 O! str [115199:0] $end
$upscope $end


$scope task uvm_wait_for_nba_region $end
$var integer 32 P! nba $end
$var integer 32 Q! next_nba $end
$upscope $end


$scope function uvm_split_string $end
$upscope $end


$scope function uvm_hdl_concat2string $end
$upscope $end

$upscope $end


$scope module std $end

$scope function randomize $end
$var reg 1 R! randomize $end
$upscope $end

$upscope $end

$enddefinitions $end
$dumpvars
0!
x"
bx #
bx $
bx %
bx &
0'
0(
x)
bx *
bx +
bx ,
bx -
bx .
0/
bx 0
b11111111111111111111111111111111 1
12
b1000011111110111011111100011111 3
b10000000000 4
b1000000000000 5
b1111000000000000000000000000 6
b10001 7
b10101010101 8
b101010101 9
b101010101 :
b0 ;
b1 <
b10 =
b100 >
b1000 ?
b10000 @
b100000 A
b1000000 B
b10000000 C
b100000000 D
b1000000000 E
b10000000000000 F
b100000000000000 G
b1000000000000000 H
b10000000000000000 I
b100000000000000000 J
b100000000000000001 K
b100000000000000010 L
b100000000000000011 M
b100000000000000100 N
b100000000000000101 O
b100000000000000110 P
b100000000000000110 Q
b100000000000000111 R
b100000000000001000 S
b100000000000001000 T
b100110000010001110110110110 U
b1 V
b1000010 W
b1111000 X
b1111000 Y
b1110111111 Z
b11100000111111111 [
b0 \
bx ]
b0 ^
bx _
b0 `
bx a
bx b
bx c
b0 d
b0 e
bx f
b0 g
b0 h
b0 i
b0 j
b0 k
b0 l
b101110 m
b11011 n
b10001 o
b11 p
b11001 q
b1000011111110111011111100011111 r
b11111011111110010110011101001110 s
0t
b1110100 u
b11010000010101110000001001001000 v
b11010001001010010010011101101011 w
b0 x
b0 y
b0 z
b0 {
b0 |
bx }
b0 ~
b0 !!
bx "!
bx #!
b0 $!
b0 %!
bx &!
bx '!
b0 (!
b0 )!
0*!
b0 +!
b0 ,!
0-!
b0 .!
0/!
bx 0!
01!
bx 2!
b111110100 3!
b0 4!
b0 5!
b0 6!
b0 7!
b0 8!
09!
b0 :!
b0 ;!
b0 <!
b0 =!
b0 >!
0?!
b0 @!
b0 A!
0B!
b0 C!
b0 D!
0E!
b0 F!
b0 G!
0H!
b0 I!
0J!
bx K!
0L!
0M!
bx N!
bx O!
b100100 P!
b100100 Q!
0R!
$end
#5
1!
1(
b100101 Q!
1"
b10100 #
b1001 $
b0 %
b100101 P!
b0 ,
b1001 +
b10100 *
1)
b11101 -
b11101 0
b0 .
b0 &
#7
0!
0(
#9
1!
1(
#11
0!
0(
#13
1!
1(
#15
b1101000000111011110000110001101 s
b10010001110111011101110111011011 v
b1110001 u
1t
b1101000000111011110000110001101 w
0!
0(
b10000001010101111110001000110010 s
b11101100110111001010001111000010 v
b1101101 u
0t
b10000001010101111110001000110010 w
b100110 Q!
b100110 P!
#17
1!
1(
b100111 Q!
0"
b1010 #
b101 $
b1 %
b100111 P!
b1 ,
b101 +
b1010 *
0)
b1111 -
b101 0
#19
0!
0(
#21
1!
1(
b101 .
b101 &
#23
0!
0(
#25
1!
1(
#27
b1101000000111011110000110001110 w
0!
0(
b10000001010101111110001000110011 w
b101000 Q!
b101000 P!
#29
1!
1(
b101001 Q!
b10010 #
b1010 $
b0 %
b101001 P!
b0 ,
b1010 +
b10010 *
b11100 -
b11100 0
#31
0!
0(
#33
1!
1(
b11100 .
b11100 &
#35
0!
0(
#37
1!
1(
#39
b1101000000111011110000110010000 w
0!
0(
b10000001010101111110001000110101 w
b101010 Q!
b101010 P!
#41
1!
1(
b101011 Q!
b1010 #
b10 $
b1 %
b101011 P!
b1 ,
b10 +
b1010 *
b1100 -
b1000 0
#43
0!
0(
#45
1!
1(
b1000 .
b1000 &
#47
0!
0(
#49
1!
1(
#51
b1101000000111011110000110010011 w
0!
0(
b10000001010101111110001000111000 w
b101100 Q!
b101100 P!
#53
1!
1(
b101101 Q!
b10001 #
b101 $
b10 %
b101101 P!
b10 ,
b101 +
b10001 *
b10110 -
b1010101 0
#55
0!
0(
#57
1!
1(
b1010101 .
b1010101 &
#59
0!
0(
#61
1!
1(
#63
b1101000000111011110000110010111 w
0!
0(
b10000001010101111110001000111100 w
b101110 Q!
b101110 P!
#65
1!
1(
b101111 Q!
b1010 #
b111 $
b0 %
b101111 P!
b0 ,
b111 +
b1010 *
b10001 -
b10001 0
#67
0!
0(
#69
1!
1(
b10001 .
b10001 &
#71
0!
0(
#73
1!
1(
#75
b1101000000111011110000110011100 w
0!
0(
b10000001010101111110001001000001 w
b110000 Q!
b110000 P!
#77
1!
1(
b110001 Q!
b1101 #
b10 $
b10 %
b110001 P!
b10 ,
b10 +
b1101 *
b1111 -
b11010 0
#79
0!
0(
#81
1!
1(
b11010 .
b11010 &
#83
0!
0(
#85
1!
1(
#87
b1101000000111011110000110100010 w
0!
0(
b10000001010101111110001001000111 w
b110010 Q!
b110010 P!
#89
1!
1(
b110011 Q!
b10100 #
b111 $
b1 %
b110011 P!
b1 ,
b111 +
b10100 *
b11011 -
b1101 0
#91
0!
0(
#93
1!
1(
b1101 .
b1101 &
#95
0!
0(
#97
1!
1(
#99
b1101000000111011110000110101001 w
0!
0(
b10000001010101111110001001001110 w
b110100 Q!
b110100 P!
#101
1!
1(
b110101 Q!
b10001 #
b1000 $
b110101 P!
b1000 +
b10001 *
b11001 -
b1001 0
#103
0!
0(
#105
1!
1(
b1001 .
b1001 &
#107
0!
0(
#109
1!
1(
#111
b1101000000111011110000110110001 w
0!
0(
b10000001010101111110001001010110 w
b110110 Q!
b110110 P!
#113
1!
1(
b110111 Q!
b101 $
b110111 P!
b101 +
b10110 -
b1100 0
#115
0!
0(
#117
1!
1(
b1100 .
b1100 &
#119
0!
0(
#121
1!
1(
#123
b1101000000111011110000110111010 w
0!
0(
b10000001010101111110001001011111 w
b111000 Q!
b111000 P!
#125
1!
1(
b111001 Q!
b1101 #
b1010 $
b111001 P!
b1010 +
b1101 *
b10111 -
b11 0
#127
0!
0(
#129
1!
1(
b11 .
b11 &
#131
0!
0(
#133
1!
1(
#135
b1101000000111011110000111000100 w
0!
0(
b10000001010101111110001001101001 w
b111010 Q!
b111010 P!
#137
1!
1(
b111011 Q!
b10011 #
b10 $
b11 %
b111011 P!
b11 ,
b10 +
b10011 *
b10101 -
b1001 0
#139
0!
0(
#141
1!
1(
b1001 .
b1001 &
#143
0!
0(
#145
1!
1(
#147
b1101000000111011110000111001111 w
0!
0(
b10000001010101111110001001110100 w
b111100 Q!
b111100 P!
#149
1!
1(
b111101 Q!
b1111 #
b100 $
b0 %
b111101 P!
b0 ,
b100 +
b1111 *
b10011 -
b10011 0
#151
0!
0(
#153
1!
1(
b10011 .
b10011 &
#155
0!
0(
#157
1!
1(
#159
b1101000000111011110000111011011 w
0!
0(
b10000001010101111110001010000000 w
b111110 Q!
b111110 P!
#161
1!
1(
b111111 Q!
b1011 #
b1 $
b111111 P!
b1 +
b1011 *
b1100 -
b1100 0
#163
0!
0(
#165
1!
1(
b1100 .
b1100 &
#167
0!
0(
#169
1!
1(
#171
b1101000000111011110000111101000 w
0!
0(
b10000001010101111110001010001101 w
b1000000 Q!
b1000000 P!
#173
1!
1(
b1000001 Q!
b1100 #
b1 %
b1000001 P!
b1 ,
b1100 *
b1101 -
b1011 0
#175
0!
0(
#177
1!
1(
b1011 .
b1011 &
#179
0!
0(
#181
1!
1(
#183
b1101000000111011110000111110110 w
0!
0(
b10000001010101111110001010011011 w
b1000010 Q!
b1000010 P!
#185
1!
1(
b1000011 Q!
b10001 #
b111 $
b11 %
b1000011 P!
b11 ,
b111 +
b10001 *
b11000 -
b10 0
#187
0!
0(
#189
1!
1(
b10 .
b10 &
#191
0!
0(
#193
1!
1(
#195
b1101000000111011110001000000101 w
0!
0(
b10000001010101111110001010101010 w
b1000100 Q!
b1000100 P!
#197
1!
1(
b1000101 Q!
b10100 #
b100 $
b1 %
b1000101 P!
b1 ,
b100 +
b10100 *
b10000 0
#199
0!
0(
#201
1!
1(
b10000 .
b10000 &
#203
0!
0(
#205
1!
1(
#207
b1101000000111011110001000010101 w
0!
0(
b10000001010101111110001010111010 w
b1000110 Q!
b1000110 P!
#209
1!
1(
b1000111 Q!
b1101 #
b1000 $
b11 %
b1000111 P!
b11 ,
b1000 +
b1101 *
b10101 -
b1 0
#211
0!
0(
#213
1!
1(
b1 .
b1 &
#215
0!
0(
#217
1!
1(
#219
b1101000000111011110001000100110 w
0!
0(
b10000001010101111110001011001011 w
b1001000 Q!
b1001000 P!
#221
1!
1(
b1001001 Q!
b10000 #
b1010 $
b1001001 P!
b1010 +
b10000 *
b11010 -
#223
0!
0(
#225
1!
1(
#227
0!
0(
#229
1!
1(
#231
b1101000000111011110001000111000 w
0!
0(
b10000001010101111110001011011101 w
b1001010 Q!
b1001010 P!
#233
1!
1(
b1001011 Q!
b1110 #
b100 $
b0 %
b1001011 P!
b0 ,
b100 +
b1110 *
b10010 -
b10010 0
#235
0!
0(
#237
1!
1(
b10010 .
b10010 &
#239
0!
0(
#241
1!
1(
#243
b1101000000111011110001001001011 w
0!
0(
b10000001010101111110001011110000 w
b1001100 Q!
b1001100 P!
#245
1!
1(
b1001101 Q!
b10100 #
b10 $
b1001101 P!
b10 +
b10100 *
b10110 -
b10110 0
#247
0!
0(
#249
1!
1(
b10110 .
b10110 &
#251
0!
0(
#253
1!
1(
#255
b1101000000111011110001001011111 w
0!
0(
b10000001010101111110001100000100 w
b1001110 Q!
b1001110 P!
#257
1!
1(
b1001111 Q!
b1010 #
b111 $
b1001111 P!
b111 +
b1010 *
b10001 -
b10001 0
#259
0!
0(
#261
1!
1(
b10001 .
b10001 &
#263
0!
0(
#265
1!
1(
#267
b1101000000111011110001001110100 w
0!
0(
b10000001010101111110001100011001 w
b1010000 Q!
b1010000 P!
#269
1!
1(
b1010001 Q!
b10100 #
b11 $
b10 %
b1010001 P!
b10 ,
b11 +
b10100 *
b10111 -
b111100 0
#271
0!
0(
#273
1!
1(
b111100 .
b111100 &
#275
0!
0(
#277
1!
1(
#279
b1101000000111011110001010001010 w
0!
0(
b10000001010101111110001100101111 w
b1010010 Q!
b1010010 P!
#281
1!
1(
b1010011 Q!
b10000 #
b111 $
b1 %
b1010011 P!
b1 ,
b111 +
b10000 *
b1001 0
#283
0!
0(
#285
1!
1(
b1001 .
b1001 &
#287
0!
0(
#289
1!
1(
#291
b1101000000111011110001010100001 w
0!
0(
b10000001010101111110001101000110 w
b1010100 Q!
b1010100 P!
#293
1!
1(
b1010101 Q!
b10001 #
b100 $
b1010101 P!
b100 +
b10001 *
b10101 -
b1101 0
#295
0!
0(
#297
1!
1(
b1101 .
b1101 &
#299
0!
0(
#301
1!
1(
#303
b1101000000111011110001010111001 w
0!
0(
b10000001010101111110001101011110 w
b1010110 Q!
b1010110 P!
#305
1!
1(
b1010111 Q!
b10000 #
b101 $
b1010111 P!
b101 +
b10000 *
b1011 0
#307
0!
0(
#309
1!
1(
b1011 .
b1011 &
#311
0!
0(
#313
1!
1(
#315
b1101000000111011110001011010010 w
0!
0(
b10000001010101111110001101110111 w
b1011000 Q!
b1011000 P!
#317
1!
1(
b1011001 Q!
b1011 #
b10 %
b1011001 P!
b10 ,
b1011 *
b10000 -
b110111 0
#319
0!
0(
#321
1!
1(
b110111 .
b110111 &
#323
0!
0(
#325
1!
1(
#327
b1101000000111011110001011101100 w
0!
0(
b10000001010101111110001110010001 w
b1011010 Q!
b1011010 P!
#329
1!
1(
b1011011 Q!
b1010 #
b10 $
b11 %
b1011011 P!
b11 ,
b10 +
b1010 *
b1100 -
b101 0
#331
0!
0(
#333
1!
1(
b101 .
b101 &
#335
0!
0(
#337
1!
1(
#339
b1101000000111011110001100000111 w
0!
0(
b10000001010101111110001110101100 w
b1011100 Q!
b1011100 P!
#341
1!
1(
b1011101 Q!
b10001 #
b1001 $
b0 %
b1011101 P!
b0 ,
b1001 +
b10001 *
b11010 -
b11010 0
#343
0!
0(
#345
1!
1(
b11010 .
b11010 &
#347
0!
0(
#349
1!
1(
#351
b1101000000111011110001100100011 w
0!
0(
b10000001010101111110001111001000 w
b1011110 Q!
b1011110 P!
#353
1!
1(
b1011111 Q!
b1011 #
b101 $
b1011111 P!
b101 +
b1011 *
b10000 -
b10000 0
#355
0!
0(
#357
1!
1(
b10000 .
b10000 &
#359
0!
0(
#361
1!
1(
#363
b1101000000111011110001101000000 w
0!
0(
b10000001010101111110001111100101 w
b1100000 Q!
b1100000 P!
#365
1!
1(
b1100001 Q!
b1111 #
b110 $
b1100001 P!
b110 +
b1111 *
b10101 -
b10101 0
#367
0!
0(
#369
1!
1(
b10101 .
b10101 &
#371
0!
0(
#373
1!
1(
#375
b1101000000111011110001101011110 w
0!
0(
b10000001010101111110010000000011 w
b1100010 Q!
b1100010 P!
#377
1!
1(
b1100011 Q!
b1010 $
b11 %
b1100011 P!
b11 ,
b1010 +
b11001 -
b1 0
#379
0!
0(
#381
1!
1(
b1 .
b1 &
#383
0!
0(
#385
1!
1(
#387
b1101000000111011110001101111101 w
0!
0(
b10000001010101111110010000100010 w
b1100100 Q!
b1100100 P!
#389
1!
1(
b1100101 Q!
b10011 #
b1000 $
b1 %
b1100101 P!
b1 ,
b1000 +
b10011 *
b11011 -
b1011 0
#391
0!
0(
#393
1!
1(
b1011 .
b1011 &
#395
0!
0(
#397
1!
1(
#399
b1101000000111011110001110011101 w
0!
0(
b10000001010101111110010001000010 w
b1100110 Q!
b1100110 P!
#401
1!
1(
b1100111 Q!
b1011 #
b11 $
b11 %
b1100111 P!
b11 ,
b11 +
b1011 *
b1110 -
b11 0
#403
0!
0(
#405
1!
1(
b11 .
b11 &
#407
0!
0(
#409
1!
1(
#411
b1101000000111011110001110111110 w
0!
0(
b10000001010101111110010001100011 w
b1101000 Q!
b1101000 P!
#413
1!
1(
b1101001 Q!
b1100 #
b1000 $
b0 %
b1101001 P!
b0 ,
b1000 +
b1100 *
b10100 -
b10100 0
#415
0!
0(
#417
1!
1(
b10100 .
b10100 &
#419
0!
0(
#421
1!
1(
#423
b1101000000111011110001111100000 w
0!
0(
b10000001010101111110010010000101 w
b1101010 Q!
b1101010 P!
#425
1!
1(
b1101011 Q!
b10001 #
b11 $
b1101011 P!
b11 +
b10001 *
#427
0!
0(
#429
1!
1(
#431
0!
0(
#433
1!
1(
#435
b1101000000111011110010000000011 w
0!
0(
b10000001010101111110010010101000 w
b1101100 Q!
b1101100 P!
#437
1!
1(
b1101101 Q!
b10010 #
b101 $
b1101101 P!
b101 +
b10010 *
b10111 -
b10111 0
#439
0!
0(
#441
1!
1(
b10111 .
b10111 &
#443
0!
0(
#445
1!
1(
#447
b1101000000111011110010000100111 w
0!
0(
b10000001010101111110010011001100 w
b1101110 Q!
b1101110 P!
#449
1!
1(
b1101111 Q!
b1011 #
b100 $
b10 %
b1101111 P!
b10 ,
b100 +
b1011 *
b1111 -
b101100 0
#451
0!
0(
#453
1!
1(
b101100 .
b101100 &
#455
0!
0(
#457
1!
1(
#459
b1101000000111011110010001001100 w
0!
0(
b10000001010101111110010011110001 w
b1110000 Q!
b1110000 P!
#461
1!
1(
b1110001 Q!
b1100 #
b101 $
b11 %
b1110001 P!
b11 ,
b101 +
b1100 *
b10001 -
b10 0
#463
0!
0(
#465
1!
1(
b10 .
b10 &
#467
0!
0(
#469
1!
1(
#471
b1101000000111011110010001110010 w
0!
0(
b10000001010101111110010100010111 w
b1110010 Q!
b1110010 P!
#473
1!
1(
b1110011 Q!
b10000 #
b1001 $
b1 %
b1110011 P!
b1 ,
b1001 +
b10000 *
b11001 -
b111 0
#475
0!
0(
#477
1!
1(
b111 .
b111 &
#479
0!
0(
#481
1!
1(
#483
b1101000000111011110010010011001 w
0!
0(
b10000001010101111110010100111110 w
b1110100 Q!
b1110100 P!
#485
1!
1(
b1110101 Q!
b10100 #
b11 %
b1110101 P!
b11 ,
b10100 *
b11101 -
b10 0
#487
0!
0(
#489
1!
1(
b10 .
b10 &
#491
0!
0(
#493
1!
1(
#495
b1101000000111011110010011000001 w
0!
0(
b10000001010101111110010101100110 w
b1110110 Q!
b1110110 P!
#497
1!
1(
b1110111 Q!
b1010 $
b1110111 P!
b1010 +
b11110 -
#499
0!
0(
#501
1!
1(
#503
0!
0(
#505
1!
1(
#507
b1101000000111011110010011101010 w
0!
0(
b10000001010101111110010110001111 w
b1111000 Q!
b1111000 P!
#509
1!
1(
b1111001 Q!
b10010 #
b111 $
b1 %
b1111001 P!
b1 ,
b111 +
b10010 *
b11001 -
b1011 0
#511
0!
0(
#513
1!
1(
b1011 .
b1011 &
#515
0!
0(
#517
1!
1(
#519
b1101000000111011110010100010100 w
0!
0(
b10000001010101111110010110111001 w
b1111010 Q!
b1111010 P!
#521
1!
1(
b1111011 Q!
b1100 #
b110 $
b11 %
b1111011 P!
b11 ,
b110 +
b1100 *
b10010 -
b10 0
#523
0!
0(
#525
1!
1(
b10 .
b10 &
#527
0!
0(
#529
1!
1(
#531
b1101000000111011110010100111111 w
0!
0(
b10000001010101111110010111100100 w
b1111100 Q!
b1111100 P!
#533
1!
1(
b1111101 Q!
b10011 #
b10 $
b10 %
b1111101 P!
b10 ,
b10 +
b10011 *
b10101 -
b100110 0
#535
0!
0(
#537
1!
1(
b100110 .
b100110 &
#539
0!
0(
#541
1!
1(
#543
b1101000000111011110010101101011 w
0!
0(
b10000001010101111110011000010000 w
b1111110 Q!
b1111110 P!
#545
1!
1(
b1111111 Q!
b10000 #
b1010 $
b1111111 P!
b1010 +
b10000 *
b11010 -
b10100000 0
#547
0!
0(
#549
1!
1(
b10100000 .
b10100000 &
#551
0!
0(
#553
1!
1(
#555
b1101000000111011110010110011000 w
0!
0(
b10000001010101111110011000111101 w
b10000000 Q!
b10000000 P!
#557
1!
1(
b10000001 Q!
b10001 #
b101 $
b0 %
b10000001 P!
b0 ,
b101 +
b10001 *
b10110 -
b10110 0
#559
0!
0(
#561
1!
1(
b10110 .
b10110 &
#563
0!
0(
#565
1!
1(
#567
b1101000000111011110010111000110 w
0!
0(
b10000001010101111110011001101011 w
b10000010 Q!
b10000010 P!
#569
1!
1(
b10000011 Q!
b10100 #
b100 $
b10000011 P!
b100 +
b10100 *
b11000 -
b11000 0
#571
0!
0(
#573
1!
1(
b11000 .
b11000 &
#575
0!
0(
#577
1!
1(
#579
b1101000000111011110010111110101 w
0!
0(
b10000001010101111110011010011010 w
b10000100 Q!
b10000100 P!
#581
1!
1(
b10000101 Q!
b1101 #
b10 $
b11 %
b10000101 P!
b11 ,
b10 +
b1101 *
b1111 -
b110 0
#583
0!
0(
#585
1!
1(
b110 .
b110 &
#587
0!
0(
#589
1!
1(
#591
b1101000000111011110011000100101 w
0!
0(
b10000001010101111110011011001010 w
b10000110 Q!
b10000110 P!
#593
1!
1(
b10000111 Q!
b10000111 P!
#595
0!
0(
#597
1!
1(
#599
0!
0(
#601
1!
1(
#603
b1101000000111011110011001010110 w
0!
0(
b10000001010101111110011011111011 w
b10001000 Q!
b10001000 P!
#605
1!
1(
b10001001 Q!
b1111 #
b111 $
b10001001 P!
b111 +
b1111 *
b10110 -
b10 0
#607
0!
0(
#609
1!
1(
b10 .
b10 &
#611
0!
0(
#613
1!
1(
#615
b1101000000111011110011010001000 w
0!
0(
b10000001010101111110011100101101 w
b10001010 Q!
b10001010 P!
#617
1!
1(
b10001011 Q!
b1101 #
b101 $
b0 %
b10001011 P!
b0 ,
b101 +
b1101 *
b10010 -
b10010 0
#619
0!
0(
#621
1!
1(
b10010 .
b10010 &
#623
0!
0(
#625
1!
1(
#627
b1101000000111011110011010111011 w
0!
0(
b10000001010101111110011101100000 w
b10001100 Q!
b10001100 P!
#629
1!
1(
b10001101 Q!
b1111 #
b1001 $
b10 %
b10001101 P!
b10 ,
b1001 +
b1111 *
b11000 -
b10000111 0
#631
0!
0(
#633
1!
1(
b10000111 .
b10000111 &
#635
0!
0(
#637
1!
1(
#639
b1101000000111011110011011101111 w
0!
0(
b10000001010101111110011110010100 w
b10001110 Q!
b10001110 P!
#641
1!
1(
b10001111 Q!
b1011 #
b111 $
b0 %
b10001111 P!
b0 ,
b111 +
b1011 *
b10010 -
b10010 0
#643
0!
0(
#645
1!
1(
b10010 .
b10010 &
#647
0!
0(
#649
1!
1(
#651
b1101000000111011110011100100100 w
0!
0(
b10000001010101111110011111001001 w
b10010000 Q!
b10010000 P!
#653
1!
1(
b10010001 Q!
b10000 #
b1 $
b10 %
b10010001 P!
b10 ,
b1 +
b10000 *
b10001 -
b10000 0
#655
0!
0(
#657
1!
1(
b10000 .
b10000 &
#659
0!
0(
#661
1!
1(
#663
b1101000000111011110011101011010 w
0!
0(
b10000001010101111110011111111111 w
b10010010 Q!
b10010010 P!
#665
1!
1(
b10010011 Q!
b1100 #
b110 $
b10010011 P!
b110 +
b1100 *
b10010 -
b1001000 0
#667
0!
0(
#669
1!
1(
b1001000 .
b1001000 &
#671
0!
0(
#673
1!
1(
#675
b1101000000111011110011110010001 w
0!
0(
b10000001010101111110100000110110 w
b10010100 Q!
b10010100 P!
