Project_uvm_alu/dump.vcd
$date
Sun Feb  2 14:37:04 2025
$end
$version
Riviera-PRO Version 2023.04.112.8911
$end
$timescale
1 ns
$end

$scope module tb $end

$scope module vif $end
$var reg 1 ! reset $end
$var reg 1 " clk $end
$var reg 8 # A [7:0] $end
$var reg 8 $ B [7:0] $end
$var reg 4 % alu_sel [3:0] $end
$var reg 8 & alu_out [7:0] $end
$var reg 1 ' carryout $end
$upscope $end


$scope module dut $end
$var wire 1 ( clock $end
$var wire 1 ) reset $end
$var wire 8 * A [7:0] $end
$var wire 8 + B [7:0] $end
$var wire 4 , ALU_Sel [3:0] $end
$var wire 9 - tmp [8:0] $end
$var reg 8 . ALU_Out [7:0] $end
$var reg 1 / CarryOut $end
$var reg 8 0 ALU_Result [7:0] $end
$upscope $end

$upscope $end


$scope module uvm_pkg $end
$var integer 32 1 UVM_UNBOUNDED_CONNECTIONS $end
$var reg 1 2 uvm_start_uvm_declarations $end
$var integer 32 3 uvm_global_random_seed $end
$var parameter 32 4 UVM_HDL_MAX_WIDTH [31:0] $end
$var parameter 32 5 UVM_STREAMBITS [31:0] $end
$var parameter 32 6 UVM_RADIX [31:0] $end
$var parameter 32 7 UVM_MACRO_NUMFLAGS [31:0] $end
$var parameter 32 8 UVM_DEFAULT [31:0] $end
$var parameter 32 9 UVM_ALL_ON [31:0] $end
$var parameter 32 : UVM_FLAGS_ON [31:0] $end
$var parameter 32 ; UVM_FLAGS_OFF [31:0] $end
$var parameter 32 < UVM_COPY [31:0] $end
$var parameter 32 = UVM_NOCOPY [31:0] $end
$var parameter 32 > UVM_COMPARE [31:0] $end
$var parameter 32 ? UVM_NOCOMPARE [31:0] $end
$var parameter 32 @ UVM_PRINT [31:0] $end
$var parameter 32 A UVM_NOPRINT [31:0] $end
$var parameter 32 B UVM_RECORD [31:0] $end
$var parameter 32 C UVM_NORECORD [31:0] $end
$var parameter 32 D UVM_PACK [31:0] $end
$var parameter 32 E UVM_NOPACK [31:0] $end
$var parameter 32 F UVM_PHYSICAL [31:0] $end
$var parameter 32 G UVM_ABSTRACT [31:0] $end
$var parameter 32 H UVM_READONLY [31:0] $end
$var parameter 32 I UVM_NODEFPRINT [31:0] $end
$var parameter 32 J UVM_MACRO_EXTRAS [31:0] $end
$var parameter 32 K UVM_FLAGS [31:0] $end
$var parameter 32 L UVM_UNPACK [31:0] $end
$var parameter 32 M UVM_CHECK_FIELDS [31:0] $end
$var parameter 32 N UVM_END_DATA_EXTRA [31:0] $end
$var parameter 32 O UVM_START_FUNCS [31:0] $end
$var parameter 32 P UVM_SET [31:0] $end
$var parameter 32 Q UVM_SETINT [31:0] $end
$var parameter 32 R UVM_SETOBJ [31:0] $end
$var parameter 32 S UVM_SETSTR [31:0] $end
$var parameter 32 T UVM_END_FUNCS [31:0] $end
$var parameter 32 U UVM_STR_CRC_POLYNOMIAL [31:0] $end
$var parameter 32 V UVM_STDOUT [31:0] $end
$var parameter 32 W UVM_LOG_UVM_RM_RECORD [31:0] $end
$var parameter 32 X UVM_LINE_WIDTH [31:0] $end
$var parameter 32 Y UVM_NUM_LINES [31:0] $end
$var parameter 32 Z UVM_SMALL_STRING [31:0] $end
$var parameter 32 [ UVM_LARGE_STRING [31:0] $end

$scope function uvm_hdl_check_path $end
$var integer 32 \ uvm_hdl_check_path $end
$upscope $end


$scope function uvm_hdl_deposit $end
$var reg 1024 ] value [1023:0] $end
$var integer 32 ^ uvm_hdl_deposit $end
$upscope $end


$scope function uvm_hdl_force $end
$var reg 1024 _ value [1023:0] $end
$var integer 32 ` uvm_hdl_force $end
$upscope $end


$scope task uvm_hdl_force_time $end
$var reg 1024 a value [1023:0] $end
$var time 64 b force_time $end
$upscope $end


$scope function uvm_hdl_release_and_read $end
$var reg 1024 c value [1023:0] $end
$var integer 32 d uvm_hdl_release_and_read $end
$upscope $end


$scope function uvm_hdl_release $end
$var integer 32 e uvm_hdl_release $end
$upscope $end


$scope function uvm_hdl_read $end
$var reg 1024 f value [1023:0] $end
$var integer 32 g uvm_hdl_read $end
$upscope $end


$scope function uvm_dpi_get_next_arg_c $end
$var integer 32 h init $end
$upscope $end


$scope function uvm_dpi_get_tool_name_c $end
$upscope $end


$scope function uvm_dpi_get_tool_version_c $end
$upscope $end


$scope function uvm_dpi_get_next_arg $end
$var integer 32 i init $end
$upscope $end


$scope function uvm_dpi_get_tool_name $end
$upscope $end


$scope function uvm_dpi_get_tool_version $end
$upscope $end


$scope function uvm_dpi_regcomp $end
$upscope $end


$scope function uvm_dpi_regexec $end
$var integer 32 j uvm_dpi_regexec $end
$upscope $end


$scope function uvm_dpi_regfree $end
$upscope $end


$scope function uvm_re_match $end
$var integer 32 k uvm_re_match $end
$upscope $end


$scope function uvm_dump_re_cache $end
$upscope $end


$scope function uvm_glob_to_re $end
$upscope $end


$scope function uvm_revision_string $end
$upscope $end


$scope function uvm_radix_to_string $end
$var integer 32 l radix $end
$upscope $end


$scope function uvm_instance_scope $end
$var reg 8 m c [7:0] $end
$var integer 32 n pos $end

$scope begin 1unnblk $end
$var integer 32 o dot_pos $end
$var integer 32 p slash_cnt $end
$var integer 32 q slash_pos $end
$upscope $end

$upscope $end


$scope function uvm_oneway_hash $end
$var integer 32 r seed $end
$var integer 32 s uvm_oneway_hash $end
$var reg 1 t msb $end
$var reg 8 u current_byte [7:0] $end
$var reg 32 v crc1 [31:0] $end
$upscope $end


$scope function uvm_create_random_seed $end
$var integer 32 w uvm_create_random_seed $end
$upscope $end


$scope function uvm_object_value_str $end
$upscope $end


$scope function uvm_leaf_scope $end
$var reg 8 x scope_separator [7:0] $end
$var reg 8 y bracket_match [7:0] $end
$var integer 32 z pos $end
$var integer 32 { bmatches $end
$upscope $end


$scope function get_radix_string_global $end
$var integer 32 | radix $end
$upscope $end


$scope function uvm_bitstream_to_string $end
$var reg 4096 } value [4095:0] $end
$var integer 32 ~ size $end
$var integer 32 !! radix $end

$scope begin 24unnblk $end
$var reg 4096 "! _t [4095:0] $end
$upscope $end

$upscope $end


$scope function uvm_integral_to_string $end
$var reg 64 #! value [63:0] $end
$var integer 32 $! size $end
$var integer 32 %! radix $end

$scope begin 26unnblk $end
$var reg 64 &! _t [63:0] $end
$upscope $end

$upscope $end


$scope function uvm_vector_to_string $end
$var reg 4096 '! value [4095:0] $end
$var integer 32 (! size $end
$var integer 32 )! radix $end
$upscope $end


$scope function uvm_get_array_index_int $end
$var reg 1 *! is_wildcard $end
$var integer 32 +! uvm_get_array_index_int $end
$var integer 32 ,! i $end
$upscope $end


$scope function uvm_get_array_index_string $end
$var reg 1 -! is_wildcard $end
$var integer 32 .! i $end
$upscope $end


$scope function uvm_is_array $end
$var reg 1 /! uvm_is_array $end
$upscope $end


$scope function uvm_has_wildcard $end
$upscope $end


$scope function m_uvm_string_queue_join $end
$upscope $end


$scope task run_test $end
$upscope $end


$scope function global_stop_request $end
$upscope $end


$scope function set_global_timeout $end
$var time 64 0! timeout $end
$var reg 1 1! overridable $end
$upscope $end


$scope function set_global_stop_timeout $end
$var time 64 2! timeout $end
$upscope $end


$scope function uvm_get_report_object $end
$upscope $end


$scope function uvm_report_enabled $end
$var integer 32 3! verbosity $end
$var reg 2 4! severity $end
$var integer 32 5! uvm_report_enabled $end
$upscope $end


$scope function uvm_report $end
$var reg 2 6! severity $end
$var integer 32 7! verbosity $end
$var integer 32 8! line $end
$var reg 1 9! report_enabled_checked $end
$upscope $end


$scope function m__uvm_report_dpi $end
$var integer 32 :! severity $end
$var integer 32 ;! verbosity $end
$var integer 32 <! line $end
$upscope $end


$scope function uvm_report_info $end
$var integer 32 =! verbosity $end
$var integer 32 >! line $end
$var reg 1 ?! report_enabled_checked $end
$upscope $end


$scope function uvm_report_warning $end
$var integer 32 @! verbosity $end
$var integer 32 A! line $end
$var reg 1 B! report_enabled_checked $end
$upscope $end


$scope function uvm_report_error $end
$var integer 32 C! verbosity $end
$var integer 32 D! line $end
$var reg 1 E! report_enabled_checked $end
$upscope $end


$scope function uvm_report_fatal $end
$var integer 32 F! verbosity $end
$var integer 32 G! line $end
$var reg 1 H! report_enabled_checked $end
$upscope $end


$scope function uvm_process_report_message $end
$upscope $end


$scope function uvm_string_to_severity $end
$var reg 2 I! sev $end
$var reg 1 J! uvm_string_to_severity $end
$upscope $end


$scope function uvm_string_to_action $end
$upscope $end


$scope function set_config_int $end
$var reg 4096 K! value [4095:0] $end
$upscope $end


$scope function set_config_object $end
$var reg 1 L! clone $end
$upscope $end


$scope function set_config_string $end
$upscope $end


$scope function uvm_is_match $end
$var reg 1 M! uvm_is_match $end
$upscope $end


$scope function uvm_string_to_bits $end
$var reg 115200 N! uvm_string_to_bits [115199:0] $end
$upscope $end


$scope function uvm_bits_to_string $end
$var reg 115200 O! str [115199:0] $end
$upscope $end


$scope task uvm_wait_for_nba_region $end
$var integer 32 P! nba $end
$var integer 32 Q! next_nba $end
$upscope $end


$scope function uvm_split_string $end
$upscope $end


$scope function uvm_hdl_concat2string $end
$upscope $end

$upscope $end


$scope module std $end

$scope function randomize $end
$var reg 1 R! randomize $end
$upscope $end

$upscope $end

$enddefinitions $end
$dumpvars
x!
0"
bx #
bx $
bx %
bx &
0'
0(
x)
bx *
bx +
bx ,
bx -
bx .
0/
bx 0
b11111111111111111111111111111111 1
12
b1000011111110111011111100011111 3
b10000000000 4
b1000000000000 5
b1111000000000000000000000000 6
b10001 7
b10101010101 8
b101010101 9
b101010101 :
b0 ;
b1 <
b10 =
b100 >
b1000 ?
b10000 @
b100000 A
b1000000 B
b10000000 C
b100000000 D
b1000000000 E
b10000000000000 F
b100000000000000 G
b1000000000000000 H
b10000000000000000 I
b100000000000000000 J
b100000000000000001 K
b100000000000000010 L
b100000000000000011 M
b100000000000000100 N
b100000000000000101 O
b100000000000000110 P
b100000000000000110 Q
b100000000000000111 R
b100000000000001000 S
b100000000000001000 T
b100110000010001110110110110 U
b1 V
b1000010 W
b1111000 X
b1111000 Y
b1110111111 Z
b11100000111111111 [
b0 \
bx ]
b0 ^
bx _
b0 `
bx a
bx b
bx c
b0 d
b0 e
bx f
b0 g
b0 h
b0 i
b0 j
b0 k
b0 l
b101110 m
b11011 n
b10001 o
b11 p
b11001 q
b1000011111110111011111100011111 r
b1100011100010111011100101000100 s
0t
b1110010 u
b11011010000001010111000011100000 v
b11110010000010010111101010101000 w
b0 x
b0 y
b0 z
b0 {
b0 |
bx }
b0 ~
b0 !!
bx "!
bx #!
b0 $!
b0 %!
bx &!
bx '!
b0 (!
b0 )!
0*!
b0 +!
b0 ,!
0-!
b0 .!
0/!
bx 0!
01!
bx 2!
b111110100 3!
b0 4!
b0 5!
b0 6!
b0 7!
b0 8!
09!
b0 :!
b0 ;!
b0 <!
b0 =!
b0 >!
0?!
b0 @!
b0 A!
0B!
b0 C!
b0 D!
0E!
b0 F!
b0 G!
0H!
b0 I!
0J!
bx K!
0L!
0M!
bx N!
bx O!
b100100 P!
b100100 Q!
0R!
$end
#10
1"
1(
b100101 Q!
b100 #
b1110 $
b0 %
1!
b100101 P!
1)
b0 ,
b1110 +
b100 *
b10010 -
b10010 0
b0 .
b0 &
#20
0"
0(
#30
b111001011010000001100101100 s
b11110010101110111100111000111100 v
b1110100 u
0t
b111001011010000001100101100 w
1"
1(
b11111000010110101111100111110101 s
b101001110001011010000001001011 v
b1110010 u
1t
b11111000010110101111100111110101 w
b100110 Q!
b100110 P!
#40
0"
0(
#50
1"
1(
b100111 Q!
b1010 #
b111 $
b1 %
0!
b100111 P!
0)
b1 ,
b111 +
b1010 *
b10001 -
b11 0
#60
0"
0(
#70
b111001011010000001100101101 w
1"
1(
b11111000010110101111100111110110 w
b101000 Q!
b101000 P!
b11 .
b11 &
#80
0"
0(
#90
1"
1(
b101001 Q!
b110 $
b0 %
b101001 P!
b0 ,
b110 +
b10000 -
b10000 0
#100
0"
0(
#110
b111001011010000001100101111 w
1"
1(
b11111000010110101111100111111000 w
b101010 Q!
b101010 P!
b10000 .
b10000 &
#120
0"
0(
#130
1"
1(
b101011 Q!
b1100 #
b10100 $
b1 %
b101011 P!
b1 ,
b10100 +
b1100 *
b100000 -
b11111000 0
#140
0"
0(
#150
b111001011010000001100110010 w
1"
1(
b11111000010110101111100111111011 w
b101100 Q!
b101100 P!
b11111000 .
b11111000 &
#160
0"
0(
#170
1"
1(
b101101 Q!
b0 #
b0 $
b0 %
b101101 P!
b0 ,
b0 +
b0 *
b0 -
b0 0
#180
0"
0(
#190
b111001011010000001100110110 w
1"
1(
b11111000010110101111100111111111 w
b101110 Q!
b101110 P!
b0 .
b0 &
#200
0"
0(
#210
1"
1(
b101111 Q!
b10001 #
b10000 $
b10 %
b101111 P!
b10 ,
b10000 +
b10001 *
b100001 -
b10000 0
#220
0"
0(
#230
1"
1(
b110001 Q!
b110001 P!
b10000 .
b10000 &
b110011 Q!
b110011 P!
b10010001101011000101111111111011 w
b10010001101011000110000000001101 w
b10010001101011000110000000100000 w
b101010001111101000011001 w
b1100100 3!
b1 5!
b1100100 =!
b1101100101 >!
1?!
