project_uvm_dflipflop/dump.vcd
$date
Fri Jan 31 14:43:14 2025
$end
$version
Riviera-PRO Version 2023.04.112.8911
$end
$timescale
1 ns
$end

$scope module tb $end

$scope module dif $end
$var reg 1 ! clk $end
$var reg 1 " rst $end
$var reg 1 # din $end
$var reg 1 $ dout $end
$upscope $end


$scope module dut $end
$var wire 1 % clk $end
$var wire 1 & rst $end
$var wire 1 ' din $end
$var reg 1 ( dout $end
$upscope $end

$upscope $end


$scope module uvm_pkg $end
$var integer 32 ) UVM_UNBOUNDED_CONNECTIONS $end
$var reg 1 * uvm_start_uvm_declarations $end
$var integer 32 + uvm_global_random_seed $end
$var parameter 32 , UVM_HDL_MAX_WIDTH [31:0] $end
$var parameter 32 - UVM_STREAMBITS [31:0] $end
$var parameter 32 . UVM_RADIX [31:0] $end
$var parameter 32 / UVM_MACRO_NUMFLAGS [31:0] $end
$var parameter 32 0 UVM_DEFAULT [31:0] $end
$var parameter 32 1 UVM_ALL_ON [31:0] $end
$var parameter 32 2 UVM_FLAGS_ON [31:0] $end
$var parameter 32 3 UVM_FLAGS_OFF [31:0] $end
$var parameter 32 4 UVM_COPY [31:0] $end
$var parameter 32 5 UVM_NOCOPY [31:0] $end
$var parameter 32 6 UVM_COMPARE [31:0] $end
$var parameter 32 7 UVM_NOCOMPARE [31:0] $end
$var parameter 32 8 UVM_PRINT [31:0] $end
$var parameter 32 9 UVM_NOPRINT [31:0] $end
$var parameter 32 : UVM_RECORD [31:0] $end
$var parameter 32 ; UVM_NORECORD [31:0] $end
$var parameter 32 < UVM_PACK [31:0] $end
$var parameter 32 = UVM_NOPACK [31:0] $end
$var parameter 32 > UVM_PHYSICAL [31:0] $end
$var parameter 32 ? UVM_ABSTRACT [31:0] $end
$var parameter 32 @ UVM_READONLY [31:0] $end
$var parameter 32 A UVM_NODEFPRINT [31:0] $end
$var parameter 32 B UVM_MACRO_EXTRAS [31:0] $end
$var parameter 32 C UVM_FLAGS [31:0] $end
$var parameter 32 D UVM_UNPACK [31:0] $end
$var parameter 32 E UVM_CHECK_FIELDS [31:0] $end
$var parameter 32 F UVM_END_DATA_EXTRA [31:0] $end
$var parameter 32 G UVM_START_FUNCS [31:0] $end
$var parameter 32 H UVM_SET [31:0] $end
$var parameter 32 I UVM_SETINT [31:0] $end
$var parameter 32 J UVM_SETOBJ [31:0] $end
$var parameter 32 K UVM_SETSTR [31:0] $end
$var parameter 32 L UVM_END_FUNCS [31:0] $end
$var parameter 32 M UVM_STR_CRC_POLYNOMIAL [31:0] $end
$var parameter 32 N UVM_STDOUT [31:0] $end
$var parameter 32 O UVM_LOG_UVM_RM_RECORD [31:0] $end
$var parameter 32 P UVM_LINE_WIDTH [31:0] $end
$var parameter 32 Q UVM_NUM_LINES [31:0] $end
$var parameter 32 R UVM_SMALL_STRING [31:0] $end
$var parameter 32 S UVM_LARGE_STRING [31:0] $end

$scope function uvm_hdl_check_path $end
$var integer 32 T uvm_hdl_check_path $end
$upscope $end


$scope function uvm_hdl_deposit $end
$var reg 1024 U value [1023:0] $end
$var integer 32 V uvm_hdl_deposit $end
$upscope $end


$scope function uvm_hdl_force $end
$var reg 1024 W value [1023:0] $end
$var integer 32 X uvm_hdl_force $end
$upscope $end


$scope task uvm_hdl_force_time $end
$var reg 1024 Y value [1023:0] $end
$var time 64 Z force_time $end
$upscope $end


$scope function uvm_hdl_release_and_read $end
$var reg 1024 [ value [1023:0] $end
$var integer 32 \ uvm_hdl_release_and_read $end
$upscope $end


$scope function uvm_hdl_release $end
$var integer 32 ] uvm_hdl_release $end
$upscope $end


$scope function uvm_hdl_read $end
$var reg 1024 ^ value [1023:0] $end
$var integer 32 _ uvm_hdl_read $end
$upscope $end


$scope function uvm_dpi_get_next_arg_c $end
$var integer 32 ` init $end
$upscope $end


$scope function uvm_dpi_get_tool_name_c $end
$upscope $end


$scope function uvm_dpi_get_tool_version_c $end
$upscope $end


$scope function uvm_dpi_get_next_arg $end
$var integer 32 a init $end
$upscope $end


$scope function uvm_dpi_get_tool_name $end
$upscope $end


$scope function uvm_dpi_get_tool_version $end
$upscope $end


$scope function uvm_dpi_regcomp $end
$upscope $end


$scope function uvm_dpi_regexec $end
$var integer 32 b uvm_dpi_regexec $end
$upscope $end


$scope function uvm_dpi_regfree $end
$upscope $end


$scope function uvm_re_match $end
$var integer 32 c uvm_re_match $end
$upscope $end


$scope function uvm_dump_re_cache $end
$upscope $end


$scope function uvm_glob_to_re $end
$upscope $end


$scope function uvm_revision_string $end
$upscope $end


$scope function uvm_radix_to_string $end
$var integer 32 d radix $end
$upscope $end


$scope function uvm_instance_scope $end
$var reg 8 e c [7:0] $end
$var integer 32 f pos $end

$scope begin 1unnblk $end
$var integer 32 g dot_pos $end
$var integer 32 h slash_cnt $end
$var integer 32 i slash_pos $end
$upscope $end

$upscope $end


$scope function uvm_oneway_hash $end
$var integer 32 j seed $end
$var integer 32 k uvm_oneway_hash $end
$var reg 1 l msb $end
$var reg 8 m current_byte [7:0] $end
$var reg 32 n crc1 [31:0] $end
$upscope $end


$scope function uvm_create_random_seed $end
$var integer 32 o uvm_create_random_seed $end
$upscope $end


$scope function uvm_object_value_str $end
$upscope $end


$scope function uvm_leaf_scope $end
$var reg 8 p scope_separator [7:0] $end
$var reg 8 q bracket_match [7:0] $end
$var integer 32 r pos $end
$var integer 32 s bmatches $end
$upscope $end


$scope function get_radix_string_global $end
$var integer 32 t radix $end
$upscope $end


$scope function uvm_bitstream_to_string $end
$var reg 4096 u value [4095:0] $end
$var integer 32 v size $end
$var integer 32 w radix $end

$scope begin 24unnblk $end
$var reg 4096 x _t [4095:0] $end
$upscope $end

$upscope $end


$scope function uvm_integral_to_string $end
$var reg 64 y value [63:0] $end
$var integer 32 z size $end
$var integer 32 { radix $end

$scope begin 26unnblk $end
$var reg 64 | _t [63:0] $end
$upscope $end

$upscope $end


$scope function uvm_vector_to_string $end
$var reg 4096 } value [4095:0] $end
$var integer 32 ~ size $end
$var integer 32 !! radix $end
$upscope $end


$scope function uvm_get_array_index_int $end
$var reg 1 "! is_wildcard $end
$var integer 32 #! uvm_get_array_index_int $end
$var integer 32 $! i $end
$upscope $end


$scope function uvm_get_array_index_string $end
$var reg 1 %! is_wildcard $end
$var integer 32 &! i $end
$upscope $end


$scope function uvm_is_array $end
$var reg 1 '! uvm_is_array $end
$upscope $end


$scope function uvm_has_wildcard $end
$upscope $end


$scope function m_uvm_string_queue_join $end
$upscope $end


$scope task run_test $end
$upscope $end


$scope function global_stop_request $end
$upscope $end


$scope function set_global_timeout $end
$var time 64 (! timeout $end
$var reg 1 )! overridable $end
$upscope $end


$scope function set_global_stop_timeout $end
$var time 64 *! timeout $end
$upscope $end


$scope function uvm_get_report_object $end
$upscope $end


$scope function uvm_report_enabled $end
$var integer 32 +! verbosity $end
$var reg 2 ,! severity $end
$var integer 32 -! uvm_report_enabled $end
$upscope $end


$scope function uvm_report $end
$var reg 2 .! severity $end
$var integer 32 /! verbosity $end
$var integer 32 0! line $end
$var reg 1 1! report_enabled_checked $end
$upscope $end


$scope function m__uvm_report_dpi $end
$var integer 32 2! severity $end
$var integer 32 3! verbosity $end
$var integer 32 4! line $end
$upscope $end


$scope function uvm_report_info $end
$var integer 32 5! verbosity $end
$var integer 32 6! line $end
$var reg 1 7! report_enabled_checked $end
$upscope $end


$scope function uvm_report_warning $end
$var integer 32 8! verbosity $end
$var integer 32 9! line $end
$var reg 1 :! report_enabled_checked $end
$upscope $end


$scope function uvm_report_error $end
$var integer 32 ;! verbosity $end
$var integer 32 <! line $end
$var reg 1 =! report_enabled_checked $end
$upscope $end


$scope function uvm_report_fatal $end
$var integer 32 >! verbosity $end
$var integer 32 ?! line $end
$var reg 1 @! report_enabled_checked $end
$upscope $end


$scope function uvm_process_report_message $end
$upscope $end


$scope function uvm_string_to_severity $end
$var reg 2 A! sev $end
$var reg 1 B! uvm_string_to_severity $end
$upscope $end


$scope function uvm_string_to_action $end
$upscope $end


$scope function set_config_int $end
$var reg 4096 C! value [4095:0] $end
$upscope $end


$scope function set_config_object $end
$var reg 1 D! clone $end
$upscope $end


$scope function set_config_string $end
$upscope $end


$scope function uvm_is_match $end
$var reg 1 E! uvm_is_match $end
$upscope $end


$scope function uvm_string_to_bits $end
$var reg 115200 F! uvm_string_to_bits [115199:0] $end
$upscope $end


$scope function uvm_bits_to_string $end
$var reg 115200 G! str [115199:0] $end
$upscope $end


$scope task uvm_wait_for_nba_region $end
$var integer 32 H! nba $end
$var integer 32 I! next_nba $end
$upscope $end


$scope function uvm_split_string $end
$upscope $end


$scope function uvm_hdl_concat2string $end
$upscope $end

$upscope $end


$scope module std $end

$scope function randomize $end
$var reg 1 J! randomize $end
$upscope $end

$upscope $end

$enddefinitions $end
$dumpvars
0!
1"
0#
x$
0%
1&
0'
x(
b11111111111111111111111111111111 )
1*
b1000011111110111011111100011111 +
b10000000000 ,
b1000000000000 -
b1111000000000000000000000000 .
b10001 /
b10101010101 0
b101010101 1
b101010101 2
b0 3
b1 4
b10 5
b100 6
b1000 7
b10000 8
b100000 9
b1000000 :
b10000000 ;
b100000000 <
b1000000000 =
b10000000000000 >
b100000000000000 ?
b1000000000000000 @
b10000000000000000 A
b100000000000000000 B
b100000000000000001 C
b100000000000000010 D
b100000000000000011 E
b100000000000000100 F
b100000000000000101 G
b100000000000000110 H
b100000000000000110 I
b100000000000000111 J
b100000000000001000 K
b100000000000001000 L
b100110000010001110110110110 M
b1 N
b1000010 O
b1111000 P
b1111000 Q
b1110111111 R
b11100000111111111 S
b0 T
bx U
b0 V
bx W
b0 X
bx Y
bx Z
bx [
b0 \
b0 ]
bx ^
b0 _
b0 `
b0 a
b0 b
b0 c
b0 d
b101110 e
b11011 f
b10001 g
b11 h
b11001 i
b1000011111110111011111100011111 j
b10001010100000111100011110110101 k
1l
b1110010 m
b1101001111101110111011110111001 n
b11001010000010010001101000000101 o
b0 p
b0 q
b0 r
b0 s
b0 t
bx u
b0 v
b0 w
bx x
bx y
b0 z
b0 {
bx |
bx }
b0 ~
b0 !!
0"!
b0 #!
b0 $!
0%!
b0 &!
0'!
bx (!
0)!
bx *!
b111110100 +!
b0 ,!
b0 -!
b0 .!
b0 /!
b0 0!
01!
b0 2!
b0 3!
b0 4!
b0 5!
b0 6!
07!
b0 8!
b0 9!
0:!
b0 ;!
b0 <!
0=!
b0 >!
b0 ?!
0@!
b0 A!
0B!
bx C!
0D!
0E!
bx F!
bx G!
b100100 H!
b100100 I!
0J!
$end
#10
1!
1%
0(
0$
#20
0!
0%
#30
1!
1%
b100101 I!
b100101 H!
b10001010100000111100011110111000 o
1#
1'
#40
0!
0%
#50
1!
1%
#60
0!
0%
#70
1!
1%
b100110 I!
b100110 H!
b10001010100000111100011110111011 o
#80
0!
0%
#90
1!
1%
#100
0!
0%
#110
1!
1%
b100111 I!
b100111 H!
b10001010100000111100011110111111 o
0#
0'
#120
0!
0%
#130
1!
1%
#140
0!
0%
#150
1!
1%
b101000 I!
b101000 H!
b10001010100000111100011111000100 o
#160
0!
0%
#170
1!
1%
#180
0!
0%
#190
1!
1%
b101001 I!
b101001 H!
b10001010100000111100011111001010 o
1#
1'
#200
0!
0%
#210
1!
1%
#220
0!
0%
#230
1!
1%
b101010 I!
b101010 H!
b10001010100000111100011111010001 o
#240
0!
0%
#250
1!
1%
#260
0!
0%
#270
1!
1%
b101011 I!
b101011 H!
b10001010100000111100011111011001 o
0#
0'
#280
0!
0%
#290
1!
1%
#300
0!
0%
#310
1!
1%
b101100 I!
b101100 H!
b10001010100000111100011111100010 o
#320
0!
0%
#330
1!
1%
#340
0!
0%
#350
1!
1%
b101101 I!
b101101 H!
b10001010100000111100011111101100 o
1#
1'
#360
0!
0%
#370
1!
1%
#380
0!
0%
#390
1!
1%
b101110 I!
b101110 H!
b10001010100000111100011111110111 o
#400
0!
0%
#410
1!
1%
#420
0!
0%
#430
1!
1%
b101111 I!
b101111 H!
b10001010100000111100100000000011 o
0#
0'
#440
0!
0%
#450
1!
1%
#460
0!
0%
#470
1!
1%
b110000 I!
b110000 H!
b10001010100000111100100000010000 o
#480
0!
0%
#490
1!
1%
#500
0!
0%
#510
1!
1%
b110001 I!
b110001 H!
b10001010100000111100100000011110 o
1#
1'
#520
0!
0%
#530
1!
1%
#540
0!
0%
#550
1!
1%
b110010 I!
b110010 H!
#560
0!
0%
#570
1!
1%
#580
0!
0%
#590
b11101000101100010000000110010100 k
b10001010101111010100101001011011 n
b1101110 m
1l
b11101000101100010000000110010100 o
1!
1%
b110011 I!
b110111111010010100110111000101 k
b1011001011100010001001000001100 n
b1110010 m
0l
b110111111010010100110111000101 o
b110011 H!
b110111111010010100110111000110 o
0"
0#
0'
0&
#600
0!
0%
#610
1!
1%
#620
0!
0%
#630
1!
1%
b110100 I!
b110100 H!
b110111111010010100110111001000 o
1#
1'
#640
0!
0%
#650
1!
1%
1(
1$
#660
0!
0%
#670
1!
1%
b110101 I!
b110101 H!
b110111111010010100110111001011 o
#680
0!
0%
#690
1!
1%
#700
0!
0%
#710
1!
1%
b110110 I!
b110110 H!
b110111111010010100110111001111 o
0#
0'
#720
0!
0%
#730
1!
1%
0(
0$
#740
0!
0%
#750
1!
1%
b110111 I!
b110111 H!
b110111111010010100110111010100 o
#760
0!
0%
#770
1!
1%
#780
0!
0%
#790
1!
1%
b111000 I!
b111000 H!
b110111111010010100110111011010 o
1#
1'
#800
0!
0%
#810
1!
1%
1(
1$
#820
0!
0%
#830
1!
1%
b111001 I!
b111001 H!
b110111111010010100110111100001 o
#840
0!
0%
#850
1!
1%
#860
0!
0%
#870
1!
1%
b111010 I!
b111010 H!
b110111111010010100110111101001 o
0#
0'
#880
0!
0%
#890
1!
1%
0(
0$
#900
0!
0%
#910
1!
1%
b111011 I!
b111011 H!
b110111111010010100110111110010 o
#920
0!
0%
#930
1!
1%
#940
0!
0%
#950
1!
1%
b111100 I!
b111100 H!
b110111111010010100110111111100 o
1#
1'
#960
0!
0%
#970
1!
1%
1(
1$
#980
0!
0%
#990
1!
1%
b111101 I!
b111101 H!
b110111111010010100111000000111 o
#1000
0!
0%
#1010
1!
1%
#1020
0!
0%
#1030
1!
1%
b111110 I!
b111110 H!
b110111111010010100111000010011 o
0#
0'
#1040
0!
0%
#1050
1!
1%
0(
0$
#1060
0!
0%
#1070
1!
1%
b111111 I!
b111111 H!
b110111111010010100111000100000 o
#1080
0!
0%
#1090
1!
1%
#1100
0!
0%
#1110
1!
1%
b1000000 I!
b1000000 H!
b110111111010010100111000101110 o
1#
1'
#1120
0!
0%
#1130
1!
1%
1(
1$
#1140
0!
0%
#1150
1!
1%
b1000001 I!
b1000001 H!
#1160
0!
0%
#1170
1!
1%
#1180
0!
0%
#1190
b10100001010101001011111011111100 k
b100010000000001010011110100010 n
b1101110 m
0l
b10100001010101001011111011111100 o
1!
1%
b1000010 I!
b100000000110110110100110001101 k
b10010001010101011110000000100011 n
b1110010 m
1l
b100000000110110110100110001101 o
b1000010 H!
b100000000110110110100110001110 o
#1200
0!
0%
#1210
1!
1%
#1220
0!
0%
#1230
1!
1%
b1000011 I!
b1000011 H!
b100000000110110110100110010000 o
1"
0#
0'
1&
#1240
0!
0%
#1250
1!
1%
0(
0$
#1260
0!
0%
#1270
1!
1%
b1000100 I!
b1000100 H!
b100000000110110110100110010011 o
#1280
0!
0%
#1290
1!
1%
#1300
0!
0%
#1310
1!
1%
b1000101 I!
b1000101 H!
b100000000110110110100110010111 o
0"
1#
1'
0&
#1320
0!
0%
#1330
1!
1%
1(
1$
#1340
0!
0%
#1350
1!
1%
b1000110 I!
b1000110 H!
b100000000110110110100110011100 o
#1360
0!
0%
#1370
1!
1%
#1380
0!
0%
#1390
1!
1%
b1000111 I!
b1000111 H!
b100000000110110110100110100010 o
1"
0#
0'
1&
#1400
0!
0%
#1410
1!
1%
0(
0$
#1420
0!
0%
#1430
1!
1%
b1001000 I!
b1001000 H!
b100000000110110110100110101001 o
#1440
0!
0%
#1450
1!
1%
#1460
0!
0%
#1470
1!
1%
b1001001 I!
b1001001 H!
b100000000110110110100110110001 o
0"
1#
1'
0&
#1480
0!
0%
#1490
1!
1%
1(
1$
#1500
0!
0%
#1510
1!
1%
b1001010 I!
b1001010 H!
b100000000110110110100110111010 o
#1520
0!
0%
#1530
1!
1%
#1540
0!
0%
#1550
1!
1%
b1001011 I!
b1001011 H!
b100000000110110110100111000100 o
1"
0#
0'
1&
#1560
0!
0%
#1570
1!
1%
0(
0$
#1580
0!
0%
#1590
1!
1%
b1001100 I!
b1001100 H!
b100000000110110110100111001111 o
#1600
0!
0%
#1610
1!
1%
#1620
0!
0%
#1630
1!
1%
b1001101 I!
b1001101 H!
b100000000110110110100111011011 o
0"
1#
1'
0&
#1640
0!
0%
#1650
1!
1%
1(
1$
#1660
0!
0%
#1670
1!
1%
b1001110 I!
b1001110 H!
b100000000110110110100111101000 o
#1680
0!
0%
#1690
1!
1%
#1700
0!
0%
#1710
1!
1%
b1001111 I!
b1001111 H!
b100000000110110110100111110110 o
1"
0#
0'
1&
#1720
0!
0%
#1730
1!
1%
0(
0$
#1740
0!
0%
#1750
1!
1%
b1010000 I!
b1010000 H!
#1760
0!
0%
#1770
1!
1%
#1780
0!
0%
#1790
1!
1%
b1010011 I!
b1010011 H!
b1010101 I!
b1010101 H!
b10010001101011000101111111111011 o
b10010001101011000110000000001101 o
b10010001101011000110000000100000 o
b11000010001001111000100011111000 o
b1100100 +!
b1 -!
b1100100 5!
b1101100101 6!
17!
